
strategic_region={
	id=120
	name="STRATEGICREGION_120"
	provinces={
		806 908 959 1020 1357 1358 1532 1567 1581 1643 1649 2038 2391 2522 2533 2619 2654 2819 2886 2914 2989 3191 3264 3279 3359 3407 3513 3527 3613 3616 3800 3851 4015 4126 4142 4276 4300 4451 4488 4523 4556 4650 4852 4889 6166 6172 6175 6187 6193 6229 6234 6237 6241 6247 6253 6267 6271 6273 6287 6291 6295 6306 6307 6308 6331 6350 6357 6365 6369 6374 6386 6415 6430 6441 6446 6465 6466 6467 6484 6486 6487 6491 6510 6511 6523 6533 6557 6559 6582 8099 8118 8122 8126 8152 8154 8156 8169 8173 8188 8203 8604 11192 11193 11194 11342 
	}
	weather={
	}
}
