
strategic_region={
	id=148
	name="STRATEGICREGION_148"
	provinces={
		22 25 74 102 146 165 203 228 253 262 293 297 310 334 352 414 468 476 520 550 685 699 740 854 880 948 1037 1052 1065 1081 1140 1196 1386 1387 1443 1498 1670 1695 1711 1849 1922 1923 2016 2116 2333 2638 3033 3103 3157 3550 5248 5501 10356 10453 10505 10597 10722 
	}
	weather={
	}
}
