
strategic_region={
	id=155
	name="STRATEGICREGION_155"
	provinces={
		39 220 247 336 413 416 460 515 582 621 635 707 917 1017 1021 1104 1189 1270 1302 1369 1380 1496 1676 1713 1738 1955 1968 2082 2152 2278 2304 2658 2775 2805 2850 3189 3318 3670 4248 5134 5163 5182 8032 10750 10764 10766 10770 10771 10772 10774 10784 10788 10789 10790 10795 10799 10802 10804 10805 10813 10814 10818 10821 10825 10826 10829 10831 10837 10840 10842 10843 10846 10853 10860 10863 10865 10866 10868 10870 10874 10875 10877 10880 10881 10882 10892 10895 10900 10904 10907 10909 10910 10912 10918 10925 10929 10931 10934 10936 10940 10961 10963 10970 11238 11263 11406 
	}
	weather={
	}
}
