
strategic_region={
	id=19
	name="STRATEGICREGION_19"
	provinces={
		47 103 308 363 465 828 878 953 1008 1202 1355 1500 1671 1683 1814 1984 2072 2130 2216 2346 2482 2719 2732 2761 2820 3014 3214 3332 3355 3377 3439 3568 3815 3830 3953 3993 4017 4047 4077 4406 4502 4626 4793 4935 6442 6452 6453 6472 6495 6509 6537 6555 6569 6575 6595 6604 6620 6626 6627 6629 6645 6650 6678 6679 6685 6688 9547 9597 9599 9632 9745 9750 9764 9916 9917 9918 9919 9920 9921 9922 9923 9924 9925 9926 9927 9930 9934 9945 9946 9951 9968 10013 11312 11313 11315 11317 11330 11341 
	}
	weather={
	}
}
