
strategic_region={
	id=21
	name="STRATEGICREGION_21"
	provinces={
		160 167 239 462 591 659 877 891 904 938 1059 1087 1090 1180 1256 1277 1293 1470 1488 1644 1719 2318 2515 2527 2690 2723 2767 2784 3242 3405 3455 3501 3701 3749 3754 3839 4226 4639 4659 4705 4710 4766 4814 5217 5333 5353 5355 5383 5397 5408 5433 5442 5472 5530 7637 8044 8065 8595 8596 8597 10022 10023 11013 
	}
	weather={
	}
}
