
strategic_region={
	id=35
	name="STRATEGICREGION_35"
	provinces={
		155 394 396 1653 1688 1749 1888 2080 2188 2198 2439 2508 2558 2569 2686 2900 3011 3139 3220 3323 3389 3517 3544 3545 3588 3631 3687 3786 4025 4048 4058 4258 4352 4456 4506 4582 4636 4637 4798 4979 6259 6264 6285 6294 6296 6326 6347 6352 6361 6375 6383 6395 6410 6479 6504 6508 6585 6589 6603 6616 6623 6653 6662 7546 7647 7650 7651 7652 7653 7654 7655 7657 7658 9552 9633 9640 9646 9686 9769 9783 9791 9960 11346 
	}
	weather={
	}
}
