strategic_region={
	id=38
	name="STRATEGICREGION_38"
	provinces={
		301 757 769 822 951 981 1007 1932 2467 2849 2920 2934 3170 3414 3714 4078 4504 4736 4741 4787 4882 4950 6805 6820 6831 6837 6842 6844 6849 6855 6882 6892 6896 6911 6914 6930 6942 6947 
	}
	weather={
	}
}
