
strategic_region={
	id=51
	name="STRATEGICREGION_51"
	provinces={
		913 1288 1899 3349 3651 3682 4471 7165 7181 7185 7188 7666 7670 7671 7679 7680 7683 7686 7689 7690 7694 7695 7696 7697 7699 7700 7702 7704 7705 7708 7709 7710 7712 7713 7714 7715 7717 7718 7720 7721 7722 7723 7724 7725 7726 7728 7729 7730 7731 7732 
	}
	weather={
	}
}
