
strategic_region={
	id=7
	name="STRATEGICREGION_7"
	provinces={
		168 306 373 553 675 725 1148 1164 1440 1506 1515 1530 1609 1781 2046 2317 2368 2477 2512 2974 2987 3017 3051 3053 3335 3553 3581 3646 3688 3824 3997 4004 4517 4647 4674 4749 4875 4990 5888 5913 5939 5980 5981 6024 6041 6095 6099 6123 6126 6157 6206 8040 9458 9484 9517 9518 9519 9525 9526 9529 9535 9554 9555 9557 9558 9559 9560 9562 9563 9566 9583 9647 9649 9653 9657 9659 9660 9661 9662 9665 9666 9667 9668 9669 9670 9671 9672 9673 9675 9676 9677 9680 9681 9687 9688 9689 9690 9799 9806 9808 9821 9822 9824 9825 9828 9831 9835 9841 9844 9845 9846 9847 9852 9862 9863 9865 9915 9935 9936 11266 11305 11348 11350 11353 11354 11357 
	}
	weather={
	}
}
