
strategic_region={
	id=74
	name="STRATEGICREGION_74"
	provinces={
		172 294 519 1026 1067 1410 1660 1685 1801 1868 1940 2045 2047 2148 2380 2393 2621 2956 3047 3061 3255 3307 3578 3709 3742 3755 3794 3852 3854 3883 3908 3924 4032 4038 4073 4103 4122 4184 4196 4243 4270 4272 4294 4340 4373 4416 4497 4499 4561 4569 4666 4713 4794 4838 6249 6284 6320 6340 6342 6351 6358 6366 6377 6387 6409 6416 6420 6421 6425 6428 6433 6438 6439 6450 6455 6460 6469 6471 6475 6478 6492 6496 6500 6501 6502 6512 6514 6519 6524 6535 6539 6543 6550 6560 6574 6592 6601 8105 8119 8120 8123 8128 8135 8138 8139 8146 8148 8150 8170 8171 8172 10014 11248 11249 11250 11333 11334 11340 
	}
	weather={
	}
}
