
strategic_region={
	id=82
	name="STRATEGICREGION_82"
	provinces={
		794 799 975 1163 1226 1352 1479 1706 1734 1863 1879 1989 2025 2167 2294 2496 2578 2895 2899 3020 3041 3055 3169 3457 3591 3636 3727 3806 3836 4065 4195 4211 4217 4302 4342 4446 4543 4548 4615 4760 4956 4983 4994 5730 5740 5762 5768 5795 5821 5825 5826 5835 5847 5863 5891 5904 5911 5915 5919 5934 5955 5959 5960 5962 5967 5968 5975 5987 5997 6003 6008 6012 6016 6022 6023 6025 6026 6031 6039 6042 6051 6056 6057 8039 8253 8266 8269 8310 8312 8318 11360 11404 
	}
	weather={
	}
}
