ideas = {

	economy = {
		law = yes
		use_list_view = yes

		undisturbed_isolation = {
			level = 7

			allowed = {
				always = no
			}
			removal_cost = -1

			modifier = {
				consumer_goods_factor = 0.5
				production_speed_industrial_complex_factor = -0.5
				production_speed_arms_factory_factor = -0.5
				production_speed_dockyard_factor = -0.5
				conversion_cost_civ_to_mil_factor = 0.5
				conversion_cost_mil_to_civ_factor = 0.5
				generate_wargoal_tension = 1.00
				join_faction_tension = 0.20
				lend_lease_tension = 0.50
				send_volunteers_tension = 0.20
				guarantee_tension = 0.75
				max_fuel_factor = -0.45
				fuel_gain_factor = -0.6
			}

			allowed_to_remove = {
				OR = {
					has_war_support > 0.5
					has_war = yes
				}
			}

			cancel_if_invalid = no
		}

		isolation = {
			level = 6

			allowed = {
				always = no
			}
			removal_cost = -1

			modifier = {
				consumer_goods_factor = 0.4
				production_speed_industrial_complex_factor = -0.4
				production_speed_arms_factory_factor = -0.4
				production_speed_dockyard_factor = -0.4
				conversion_cost_civ_to_mil_factor= 0.4
				conversion_cost_mil_to_civ_factor = 0.4
				generate_wargoal_tension = 1.00
				join_faction_tension = 0.20
				send_volunteers_tension = 0.20
				guarantee_tension = 0.5
				max_fuel_factor = -0.35
				fuel_gain_factor = -0.5
			}
			allowed_to_remove = {
				OR = {
					has_war_support > 0.75
					has_war = yes
				}
			}

			cancel_if_invalid = no
		}

		civilian_economy = {
			level = 5


			cost = 100
			removal_cost = -1

			modifier = {
				consumer_goods_factor = 0.3
				production_speed_industrial_complex_factor = -0.3
				production_speed_arms_factory_factor = -0.3
				conversion_cost_civ_to_mil_factor = 0.3
				conversion_cost_mil_to_civ_factor = 0.3
				max_fuel_factor = -0.25
				fuel_gain_factor = -0.4
			}

			default = yes

			cancel_if_invalid = no
		}

		low_economic_mobilisation = {
			level = 4

			available = {
				threat > 0.05
				has_war_support > 0.15
				if = {
					limit = { original_tag = HUN }

					OR = {
						has_completed_focus = HUN_secret_rearmament_focus
						NOT = { has_idea = trianon_restrictions }
					}
				}
			}

			cost = 100
			removal_cost = -1

			modifier = {
				consumer_goods_factor = 0.25
				production_speed_industrial_complex_factor = -0.1
				production_speed_arms_factory_factor = -0.1
				fuel_gain_factor = -0.25
			}

			cancel_if_invalid = no

			ai_will_do = {
   				factor = 2

   				modifier = {
					factor = 20

					is_major = yes
				}
				modifier = {
					has_war_support > 0.25
					factor = 0 #don't even look at it if you could be taking partial mob
				}
   			}
		}

		partial_economic_mobilisation = {
			level = 3

			available = {
				threat > 0.10
				has_war_support > 0.25
				if = {
					limit = { original_tag = HUN }

					OR = {
						has_completed_focus = HUN_secret_rearmament_focus
						NOT = { has_idea = trianon_restrictions }
					}
				}
			}

			cost = 100
			removal_cost = -1

			modifier = {
				consumer_goods_factor = 0.2
				production_speed_dockyard_factor = 0.1
				production_speed_arms_factory_factor = 0.1
				conversion_cost_civ_to_mil_factor = -0.1
				fuel_gain_factor = -0.1
			}

			cancel_if_invalid = no
			ai_will_do = {
   				factor = 2

   				modifier = {
					factor = 20

					is_major = yes
				}
   			}
		}

		war_economy = {
			level = 2

			available = {
				threat > 0.15
				has_war_support > 0.5
				OR = {
					has_government = fascism
					has_government = communism
					custom_trigger_tooltip = { tooltip = or_clarification_tooltip always = no }
					AND = {
						has_war = yes
						any_enemy_country = {
							ic_ratio = {
								tag = ROOT
								ratio > 0.4
							}
						}
					}
				}
				if = {
					limit = { original_tag = HUN }
					NOT = { has_idea = trianon_restrictions }
				}
			}

			cost = 100
			removal_cost = -1

			modifier = {
				consumer_goods_factor = 0.15
				production_speed_dockyard_factor = 0.2
				production_speed_arms_factory_factor = 0.2
				conversion_cost_civ_to_mil_factor= -0.2
			}

			cancel_if_invalid = no
			ai_will_do = {
   				factor = 5

				modifier = {
					#High prio on production
					factor = 20
					manpower_per_military_factory >  1000
				}
   			}
		}

		tot_economic_mobilisation = {

			level = 1

			available = {
				has_war = yes
				has_war_support > 0.8
				threat > 0.5
				date > 1941.1.1
			}
			ai_will_do = {
   				factor = 1

				modifier = {
					factor = 25
					#Prio this if nation has a lot of manpower compared to MIC
					manpower_per_military_factory > 15000
				}

				modifier = {
					#Block  unless nation has a lot of manpower
					factor = 0
					manpower_per_military_factory <  7000
				}


				modifier = {
					# never take this if we are on low conscription laws for safety
					factor = 0
					OR = {
						has_idea = volunteer_only
						has_idea = limited_conscription
					}
				}
   			}

			cost = 100
			removal_cost = -1

			modifier = {
				consumer_goods_factor = 0.1
				conscription = -0.03
				production_speed_dockyard_factor = 0.3
				production_speed_arms_factory_factor = 0.3
				conversion_cost_civ_to_mil_factor= -0.3
			}

			cancel_if_invalid = no
		}


		new_economic_policy = {

			picture = new_economic_policy

			allowed = {
				always = no
			}
			allowed_to_remove = {
				OR = {
					surrender_progress > 0.75
					NOT = { has_government = communism }
				}
			}

			removal_cost = -1

			modifier = {
				consumer_goods_factor = 0.15
				production_speed_buildings_factor = -0.15

			}

			cancel_if_invalid = no

			ai_will_do = {
   				factor = 0
   			}
		}
		new_economic_policy_2 = {
			name = new_economic_policy

			picture = new_economic_policy

			allowed = {
				always = no
			}
			allowed_to_remove = {
				OR = {
					surrender_progress > 0.75
					NOT = { has_government = communism }
				}
			}

			removal_cost = -1

			modifier = {
				consumer_goods_factor = 0.10
				production_speed_buildings_factor = -0.2
				global_building_slots_factor = 0.1
			}

			cancel_if_invalid = no

			ai_will_do = {
   				factor = 0
   			}
		}
	}

	trade_laws = {
		law = yes
		use_list_view = yes

		free_trade = {
			level = 4

			cost = 100
			removal_cost = -1

			modifier = {
				min_export = 0.8
				industrial_capacity_factory = 0.15
				industrial_capacity_dockyard = 0.15
				production_speed_buildings_factor = 0.15
				research_speed_factor = 0.10
			}

			cancel_if_invalid = no

			ai_will_do = {
   				factor = 1
   			}
		}

		export_focus = {
			level = 3

			available = {
			}


			cost = 100
			removal_cost = -1

			modifier = {
				min_export = 0.5
				industrial_capacity_factory = 0.1
				industrial_capacity_dockyard = 0.1
				production_speed_buildings_factor = 0.1
				research_speed_factor = 0.05
				civilian_intel_to_others = 20.0
				navy_intel_to_others = 10.0
			}

			default = yes

			cancel_if_invalid = no

			ai_will_do = {
   				factor = 1

				modifier = {
					factor = 0
					is_major = no
					has_war = no
					is_in_faction = no
				}
   			}
		}

		limited_exports = {
			level = 2


			available = {
				OR = {
					AND = {
						has_government = democratic
						has_war = yes
						any_enemy_country = {
							ic_ratio = {
								tag = ROOT
								ratio > 0.2
							}
						}
					}
					AND = {
						NOT = { has_government = democratic }
						OR = {
							has_idea = partial_economic_mobilisation
							has_idea = war_economy
							has_idea = tot_economic_mobilisation
						}
					}
				}
			}

			cost = 100
			removal_cost = -1

			modifier = {
				min_export = 0.25
				industrial_capacity_factory = 0.05
				industrial_capacity_dockyard = 0.05
				production_speed_buildings_factor = 0.05
				research_speed_factor = 0.01
				civilian_intel_to_others = 10.0
				navy_intel_to_others = 5
			}

			cancel_if_invalid = no

			ai_will_do = {
   				factor = 1

   				modifier = {
					factor = 0

					is_major = no
					is_in_faction = yes
					has_war = yes
				}

				# minors not at war should want to get the bonuses from free trade
				modifier = {
					factor = 0

					is_major = no
					has_war = no
				}
   			}
		}

		closed_economy = {
			level = 1


			available = {
				has_war = yes
				OR = {
					has_government = fascism
					has_government = communism
				}
				OR = {
					has_idea = war_economy
					has_idea = tot_economic_mobilisation
				}
			}

			cost = 100
			removal_cost = -1
			allowed_to_remove = {
				NOT = { original_tag = SOV }
			}


			modifier = {
				min_export = 0
			}

			on_add = {
				custom_effect_tooltip = closed_economy_TT
			}

			cancel_if_invalid = no

			ai_will_do = {
   				factor = 1

   				modifier = {
					factor = 0

					is_major = no
					is_in_faction = yes
					has_war = yes
				}

				# minors not at war should want to get the bonuses from free trade
				modifier = {
					factor = 0

					is_major = no
					has_war = no
				}
   			}
		}
	}
}
