From;To;Type;Through;start_x;start_y;stop_x;stop_y;adjacency_rule_name;Comment
3363;718;sea;7857;-1;-1;-1;-1;;Kerch Strait
4313;677;sea;7780;-1;-1;-1;-1;;Denmark-Sweden
4894;7636;sea;7813;-1;-1;-1;-1;;Netherlands
7636;7635;sea;7813;-1;-1;-1;-1;;Netherlands
7634;7635;sea;7813;-1;-1;-1;-1;;Netherlands
7634;7633;sea;7813;-1;-1;-1;-1;;Netherlands
7632;7633;sea;7813;-1;-1;-1;-1;;Netherlands
1742;7633;sea;7813;-1;-1;-1;-1;;Netherlands
1049;7631;sea;7813;-1;-1;-1;-1;;Germany
5264;7628;sea;7813;-1;-1;-1;-1;;Germany
7623;7626;sea;7813;-1;-1;-1;-1;;Germany
4623;7623;sea;7813;-1;-1;-1;-1;;Germany
7628;7627;sea;7813;-1;-1;-1;-1;;Germany
3718;7629;sea;7780;-1;-1;-1;-1;;Germany
4642;7630;sea;7780;-1;-1;-1;-1;;Germany
4444;3267;sea;7780;-1;-1;-1;-1;;Germany
7624;4444;sea;7780;-1;-1;-1;-1;;Germany
5287;2063;sea;7780;-1;-1;-1;-1;;Germany
5297;2063;sea;7780;-1;-1;-1;-1;;Germany
2643;3912;sea;7780;-1;-1;-1;-1;;Denmark
4839;7614;sea;7780;-1;-1;-1;-1;;Denmark
2135;7621;sea;7780;-1;-1;-1;-1;;Denmark
1661;7621;sea;7780;-1;-1;-1;-1;;Denmark
1661;5245;sea;7780;-1;-1;-1;-1;;Denmark
5231;5250;sea;7780;-1;-1;-1;-1;;Denmark
7619;5250;sea;7780;-1;-1;-1;-1;;Denmark
2754;7610;sea;7785;-1;-1;-1;-1;;Denmark
5219;7615;sea;7813;-1;-1;-1;-1;;Denmark
3818;7618;sea;7813;-1;-1;-1;-1;;Denmark
5243;7620;sea;7813;-1;-1;-1;-1;;Denmark
4839;5228;sea;7780;-1;-1;-1;-1;;Denmark
5227;5230;sea;7780;-1;-1;-1;-1;;Denmark
4407;4808;sea;7835;-1;-1;-1;-1;;Estonia
3524;2100;sea;7835;-1;-1;-1;-1;;Estonia
78;2100;sea;7835;-1;-1;-1;-1;;Estonia
78;4808;sea;7835;-1;-1;-1;-1;;Estonia
7560;1646;sea;7754;-1;-1;-1;-1;;Italy
7659;2285;sea;7774;-1;-1;-1;-1;;Italy
7649;7646;sea;7843;-1;-1;-1;-1;;Italy
7706;4478;sea;7805;-1;-1;-1;-1;;Italy
4828;4010;sea;7786;-1;-1;-1;-1;;Tunisia
7642;7692;sea;7786;-1;-1;-1;-1;;Tunisia
566;1692;sea;7819;-1;-1;-1;-1;;Greece
7684;6948;sea;7819;-1;-1;-1;-1;;Greece
4189;1370;sea;7819;-1;-1;-1;-1;;Greece
4189;7691;sea;7819;-1;-1;-1;-1;;Greece
1370;7691;sea;7819;-1;-1;-1;-1;;Greece
4074;3592;sea;7807;-1;-1;-1;-1;;Greece
1370;3592;sea;7807;-1;-1;-1;-1;;Greece
7131;2425;sea;7814;-1;-1;-1;-1;;Greece
7669;3614;sea;7814;-1;-1;-1;-1;;Greece
7572;4855;sea;7814;-1;-1;-1;-1;;Greece
7698;4855;sea;7814;-1;-1;-1;-1;;Greece
7698;7693;sea;7814;-1;-1;-1;-1;;Greece
6960;7693;sea;7814;-1;-1;-1;-1;;Greece
1748;7686;sea;7877;-1;-1;-1;-1;;Greece
7694;7686;sea;7877;-1;-1;-1;-1;;Greece
7694;7699;sea;7877;-1;-1;-1;-1;;Greece
7709;7699;sea;7877;-1;-1;-1;-1;;Greece
7709;7714;sea;7877;-1;-1;-1;-1;;Greece
7709;7710;sea;7814;-1;-1;-1;-1;;Greece
7715;7710;sea;7814;-1;-1;-1;-1;;Greece
7709;7722;sea;7814;-1;-1;-1;-1;;Greece
7725;7722;sea;7814;-1;-1;-1;-1;;Greece
7725;7728;sea;7814;-1;-1;-1;-1;;Greece
7718;7728;sea;7814;-1;-1;-1;-1;;Greece
7718;7724;sea;7814;-1;-1;-1;-1;;Greece
7727;7724;sea;7814;-1;-1;-1;-1;;Greece
7729;7722;sea;7814;-1;-1;-1;-1;;Greece
7729;7730;sea;7814;-1;-1;-1;-1;;Greece
7713;7718;sea;7814;-1;-1;-1;-1;;Greece
7713;7705;sea;7814;-1;-1;-1;-1;;Greece
7697;7705;sea;7814;-1;-1;-1;-1;;Greece
7697;7696;sea;7814;-1;-1;-1;-1;;Greece
4293;7696;sea;7814;-1;-1;-1;-1;;Greece
6920;7677;sea;7759;-1;-1;-1;-1;;Greece
6884;7676;sea;7759;-1;-1;-1;-1;;Greece
7675;7676;sea;7759;-1;-1;-1;-1;;Greece
7675;7673;sea;7759;-1;-1;-1;-1;;Greece
7672;7673;sea;7759;-1;-1;-1;-1;;Greece
7663;7666;sea;7759;-1;-1;-1;-1;;Greece
7671;7666;sea;7759;-1;-1;-1;-1;;Greece
7663;6749;sea;7759;-1;-1;-1;-1;;Greece
7679;7680;sea;7877;-1;-1;-1;-1;;Greece
7662;3148;sea;7759;-1;-1;-1;-1;;Greece
2085;3787;sea;7843;-1;-1;-1;-1;;Yugoslavia
7646;3787;sea;7843;-1;-1;-1;-1;;Yugoslavia
7646;3544;sea;7843;-1;-1;-1;-1;;Yugoslavia
7647;6504;sea;7865;-1;-1;-1;-1;;Yugoslavia
7647;7649;sea;7843;-1;-1;-1;-1;;Yugoslavia
7649;8456;sea;7843;-1;-1;-1;-1;;Yugoslavia
7651;7546;sea;7865;-1;-1;-1;-1;;Yugoslavia
7651;7650;sea;7865;-1;-1;-1;-1;;Yugoslavia
7652;7650;sea;7865;-1;-1;-1;-1;;Yugoslavia
7652;4636;sea;7865;-1;-1;-1;-1;;Yugoslavia
7653;3786;sea;7865;-1;-1;-1;-1;;Yugoslavia
7653;3389;sea;7865;-1;-1;-1;-1;;Yugoslavia
6623;3389;sea;7865;-1;-1;-1;-1;;Yugoslavia
6662;3389;sea;7865;-1;-1;-1;-1;;Yugoslavia
6662;7654;sea;7865;-1;-1;-1;-1;;Yugoslavia
6662;7655;sea;7865;-1;-1;-1;-1;;Yugoslavia
2198;7655;sea;7865;-1;-1;-1;-1;;Yugoslavia
7658;7655;sea;7865;-1;-1;-1;-1;;Yugoslavia
2198;7657;sea;7865;-1;-1;-1;-1;;Yugoslavia
7655;7657;sea;7865;-1;-1;-1;-1;;Yugoslavia
4834;6805;sea;7774;-1;-1;-1;-1;;Corsica
7659;7600;sea;7774;-1;-1;-1;-1;;Corsica
7689;7690;sea;7877;-1;-1;-1;-1;;Aegean
7683;7690;sea;7877;-1;-1;-1;-1;;Aegean
7695;7690;sea;7768;-1;-1;-1;-1;;Aegean
7695;7700;sea;7768;-1;-1;-1;-1;;Aegean
7704;7700;sea;7768;-1;-1;-1;-1;;Aegean
7704;7708;sea;7768;-1;-1;-1;-1;;Aegean
7721;7708;sea;7768;-1;-1;-1;-1;;Aegean
7717;7708;sea;7768;-1;-1;-1;-1;;Aegean
7717;7720;sea;7768;-1;-1;-1;-1;;Aegean
7726;4471;sea;7768;-1;-1;-1;-1;;Aegean
7712;4471;sea;7768;-1;-1;-1;-1;;Aegean
7731;4471;sea;7768;-1;-1;-1;-1;;Aegean
7731;7732;sea;7768;-1;-1;-1;-1;;Aegean
7721;7723;sea;7768;-1;-1;-1;-1;;Aegean
1709;1030;sea;7901;-1;-1;-1;-1;;Aegean
6992;1030;sea;7901;-1;-1;-1;-1;;Aegean
2197;7583;sea;7756;-1;-1;-1;-1;;UK
1689;7643;sea;7796;-1;-1;-1;-1;;France
6196;7645;sea;7796;-1;-1;-1;-1;;France
6251;3679;sea;7796;-1;-1;-1;-1;;France
4131;7644;sea;7796;-1;-1;-1;-1;;France
7733;7082;sea;7786;-1;-1;-1;-1;;Italy
8850;8800;sea;7810;-1;-1;-1;-1;;Spain
8829;8814;sea;7810;-1;-1;-1;-1;;Spain
8852;8875;sea;7872;-1;-1;-1;-1;;Spain
8778;8800;sea;7810;-1;-1;-1;-1;;Spain
7639;7638;sea;7862;-1;-1;-1;-1;;Channel Islands
7609;7602;sea;7752;-1;-1;-1;-1;;Sweden
7609;1373;sea;7823;-1;-1;-1;-1;;Sweden
8661;8660;sea;7760;-1;-1;-1;-1;;Canada
5465;1903;sea;7751;-1;-1;-1;-1;;Zeeland
5465;5453;sea;7751;-1;-1;-1;-1;;Zeeland
5443;5453;sea;7751;-1;-1;-1;-1;;Zeeland
4913;7005;sea;7763;-1;-1;-1;-1;;Italy
7785;7813;sea;8499;1360;1921;1311;1878;KIEL_CANAL;Kiel
7831;7826;sea;8516;2805;409;2850;324;SUEZ_CANAL;Suez
7751;7842;;-1;-1;-1;-1;-1;ENGLISH_CHANNEL;English Channel North, doesnt work
7842;7866;;-1;-1;-1;-1;-1;ENGLISH_CHANNEL;English Channel South, doesnt work
7841;7785;;-1;-1;-1;-1;-1;DANISH_BELTS_STRAIT;Danish Belts, works
7785;7780;;-1;-1;-1;-1;-1;DANISH_BELTS_STRAIT2;Danish Belts 2, works
7802;7828;;-1;-1;-1;-1;-1;GIBRALTAR_STRAIT;Gibraltar, works
7819;7750;;-1;-1;-1;-1;-1;ADRIATIC_STRAIT;Adriatic strait, works
7805;7763;;-1;-1;-1;-1;-1;STRAIT_OF_MESSINA;Messina strait, works
7753;7852;;-1;-1;-1;-1;-1;ITALIAN_BELT;Italian belt
7753;7872;;-1;-1;-1;-1;-1;ITALIAN_BELT;Italian belt
7872;7821;;-1;-1;-1;-1;-1;ITALIAN_BELT;Italian belt
7798;7821;;-1;-1;-1;-1;-1;ITALIAN_BELT;Italian belt
7868;7798;;-1;-1;-1;-1;-1;ITALIAN_BELT;Italian belt
7868;7793;;-1;-1;-1;-1;-1;ITALIAN_BELT;Italian belt
7805;7793;;-1;-1;-1;-1;-1;ITALIAN_BELT;Italian belt
7539;3385;sea;7799;-1;-1;-1;-1;;Norway
7539;3254;sea;7799;-1;-1;-1;-1;;Norway
5053;5042;sea;7799;-1;-1;-1;-1;;Norway
4328;5042;sea;7799;-1;-1;-1;-1;;Norway
4328;7524;sea;7799;-1;-1;-1;-1;;Norway
4328;3343;sea;7799;-1;-1;-1;-1;;Norway
943;7519;sea;7792;-1;-1;-1;-1;;Norway
526;1412;sea;7764;-1;-1;-1;-1;;Norway
7494;1412;sea;7764;-1;-1;-1;-1;;Norway
7491;1412;sea;7764;-1;-1;-1;-1;;Norway
7491;7494;sea;7764;-1;-1;-1;-1;;Norway
3744;7648;sea;7789;-1;-1;-1;-1;;UK
3744;7492;sea;7789;-1;-1;-1;-1;;UK
7637;591;sea;7842;-1;-1;-1;-1;;UK
1776;3023;sea;8168;-1;-1;-1;-1;;Italy
-1;-1;;-1;-1;-1;-1;-1;-1
