1={943 }
2={8335 }
3={644 }
4={4849 }
5={1396 }
6={1555 }
7={242 }
8={84 }
9={536 }
10={38 }
11={615 }
12={11147 }
13={8238 }
14={8460 }
15={772 }
16={502 }
17={8325 }
18={8342 }
19={8497 }
20={8575 }
21={11132 }
22={8357 }
23={8323 }
24={3903 }
25={2297 }
26={8334 }
27={11076 }
28={8295 }
29={752 }
30={8336 }
31={8205 }
32={2360 }
33={843 }
34={8209 }
35={8557 }
36={8609 }
37={8561 }
38={8260 }
39={8199 }
40={986 }
41={1874 }
42={8186 }
43={8265 }
44={8151 }
45={8155 }
46={11114 }
47={8132 }
48={8392 }
49={21 }
50={8141 }
51={8095 }
52={11072 }
53={8133 }
54={8306 }
55={11066 }
56={478 }
57={8109 }
58={8103 }
59={8585 }
60={11071 }
61={5038 }
62={3865 }
63={8107 }
64={7534 }
65={8327 }
66={11030 }
67={8380 }
68={8549 }
69={1603 }
70={7512 }
71={8108 }
72={8115 }
73={8316 }
74={8226 }
75={8158 }
76={5714 }
77={8304 }
78={4669 }
79={7531 }
80={8161 }
81={8096 }
82={11017 }
83={7683 }
84={404 }
85={10977 }
86={8101 }
87={8318 }
88={8310 }
89={8056 }
90={8582 }
91={5116 }
92={8144 }
93={8532 }
94={8173 }
95={8116 }
96={8154 }
97={1154 }
98={54 }
99={37 }
100={8156 }
101={11006 }
102={302 }
103={10667 }
104={8344 }
105={10933 }
106={8486 }
107={10924 }
108={635 }
109={8370 }
110={10833 }
111={10942 }
112={10929 }
113={8073 }
114={8237 }
115={8069 }
116={2756 }
117={7552 }
118={8063 }
119={8174 }
120={8435 }
121={8385 }
122={8613 }
123={8436 }
124={8433 }
125={501 }
126={7560 }
127={10879 }
128={8451 }
129={8434 }
130={8467 }
131={8343 }
132={8224 }
133={8419 }
134={8420 }
135={8406 }
136={10841 }
137={4129 }
138={8203 }
139={8329 }
140={8365 }
141={8374 }
142={8350 }
143={8352 }
144={10858 }
145={8052 }
146={10766 }
147={10812 }
148={8061 }
149={8071 }
150={8396 }
151={8290 }
152={5719 }
153={7581 }
154={8388 }
155={4031 }
156={10822 }
157={8077 }
158={898 }
159={8280 }
160={8085 }
161={8049 }
162={8100 }
163={7613 }
164={8539 }
165={8337 }
166={1450 }
167={8255 }
168={303 }
169={8444 }
170={4808 }
171={8258 }
172={8381 }
173={10562 }
174={1373 }
175={5773 }
176={10693 }
177={10688 }
178={8541 }
179={10704 }
180={8220 }
181={8443 }
182={4489 }
183={8427 }
184={2863 }
185={5180 }
186={914 }
187={7602 }
188={7603 }
189={8601 }
190={7605 }
191={10679 }
192={74 }
193={623 }
194={10717 }
195={1320 }
196={7606 }
197={10729 }
198={677 }
199={8113 }
200={7608 }
201={3867 }
202={10677 }
203={10651 }
204={5527 }
205={5208 }
206={2581 }
207={8600 }
208={8082 }
209={5201 }
210={10590 }
211={2457 }
212={1612 }
213={5223 }
214={8281 }
215={2333 }
216={2747 }
217={218 }
218={10593 }
219={4809 }
220={10490 }
221={904 }
222={10414 }
223={424 }
224={10538 }
225={10499 }
226={5228 }
227={5555 }
228={10600 }
229={1387 }
230={10473 }
231={5229 }
232={877 }
233={5230 }
234={469 }
235={5538 }
236={5247 }
237={6229 }
238={10475 }
239={7617 }
240={9535 }
241={3120 }
242={3405 }
243={4424 }
244={5275 }
245={8599 }
246={10447 }
247={4660 }
248={10430 }
249={2175 }
250={5250 }
251={5939 }
252={4600 }
253={5274 }
254={8252 }
255={5282 }
256={4791 }
257={3335 }
258={8602 }
259={11214 }
260={8282 }
261={5443 }
262={10360 }
263={208 }
264={1324 }
265={6467 }
266={557 }
267={3772 }
268={1229 }
269={4774 }
270={244 }
271={8598 }
272={25 }
273={4642 }
274={10415 }
275={3890 }
276={5276 }
277={688 }
278={743 }
279={2911 }
280={2515 }
281={8123 }
282={9997 }
283={10408 }
284={2341 }
285={5004 }
286={3361 }
287={4814 }
288={5379 }
289={5357 }
290={10281 }
291={2789 }
292={5427 }
293={2670 }
294={3658 }
295={4518 }
296={5378 }
297={5347 }
298={3657 }
299={5352 }
300={2950 }
301={4864 }
302={1644 }
303={7636 }
304={10325 }
305={5380 }
306={10312 }
307={5366 }
308={5412 }
309={9577 }
310={5425 }
311={10303 }
312={10326 }
313={9982 }
314={1368 }
315={8477 }
316={5415 }
317={8461 }
318={4705 }
319={4226 }
320={10265 }
321={5553 }
322={5479 }
323={2077 }
324={11209 }
325={2527 }
326={5498 }
327={3871 }
328={5542 }
329={1090 }
330={9977 }
331={1778 }
332={5465 }
333={5566 }
334={10218 }
335={10184 }
336={10215 }
337={104 }
338={2061 }
339={5515 }
340={5617 }
341={5604 }
342={4405 }
343={2242 }
344={10221 }
345={1543 }
346={6516 }
347={5601 }
348={3918 }
349={10168 }
350={1222 }
351={11283 }
352={10098 }
353={8452 }
354={2118 }
355={4720 }
356={10158 }
357={5595 }
358={5589 }
359={5620 }
360={5605 }
361={2639 }
362={706 }
363={5701 }
364={4740 }
365={5786 }
366={2846 }
367={1039 }
368={10151 }
369={4392 }
370={5679 }
371={1870 }
372={2200 }
373={10129 }
374={5691 }
375={3010 }
376={758 }
377={5948 }
378={2921 }
379={3950 }
380={7639 }
381={5747 }
382={77 }
383={5712 }
384={10115 }
385={10128 }
386={5801 }
387={1056 }
388={5758 }
389={6171 }
390={5742 }
391={9522 }
392={5746 }
393={2023 }
394={3055 }
395={1813 }
396={1108 }
397={2412 }
398={5845 }
399={4436 }
400={4342 }
401={4604 }
402={849 }
403={5884 }
404={2975 }
405={10087 }
406={5804 }
407={8500 }
408={9584 }
409={5819 }
410={5817 }
411={10078 }
412={4648 }
413={314 }
414={1912 }
415={1535 }
416={2416 }
417={8414 }
418={6000 }
419={3661 }
420={1486 }
421={5911 }
422={9666 }
423={9524 }
424={5981 }
425={10079 }
426={6042 }
427={3177 }
428={551 }
429={10050 }
430={2079 }
431={8534 }
432={482 }
433={1230 }
434={5977 }
435={6061 }
436={9565 }
437={6011 }
438={553 }
439={4566 }
440={11350 }
441={10051 }
442={76 }
443={6024 }
444={2259 }
445={9499 }
446={2958 }
447={2368 }
448={4614 }
449={3688 }
450={2872 }
451={6110 }
452={632 }
453={3185 }
454={3382 }
455={6121 }
456={1362 }
457={2764 }
458={2626 }
459={1096 }
460={675 }
461={6109 }
462={6107 }
463={3646 }
464={10032 }
465={1164 }
466={3909 }
467={2169 }
468={3832 }
469={2823 }
470={1725 }
471={347 }
472={2351 }
473={1273 }
474={1524 }
475={6236 }
476={4927 }
477={716 }
478={3145 }
479={6032 }
480={9491 }
481={191 }
482={472 }
483={3038 }
484={6242 }
485={373 }
486={6311 }
487={3674 }
488={9940 }
489={6399 }
490={9553 }
491={394 }
492={6269 }
493={4763 }
494={587 }
495={1728 }
496={6241 }
497={2621 }
498={6235 }
499={3115 }
500={1802 }
501={5006 }
502={3691 }
503={4269 }
504={3175 }
505={6380 }
506={6322 }
507={680 }
508={3742 }
509={155 }
510={6372 }
511={2162 }
512={1649 }
513={2085 }
514={481 }
515={2779 }
516={6598 }
517={58 }
518={2478 }
519={2130 }
520={3439 }
521={1055 }
522={1263 }
523={3471 }
524={3373 }
525={973 }
526={7686 }
527={560 }
528={2612 }
529={6599 }
530={657 }
531={8284 }
532={2148 }
533={6683 }
534={6515 }
535={6646 }
536={6586 }
537={8401 }
538={8188 }
539={1398 }
540={1500 }
541={2869 }
542={8409 }
543={1766 }
544={485 }
545={7650 }
546={2686 }
547={6578 }
548={9145 }
549={9222 }
550={8481 }
551={3315 }
552={8440 }
553={878 }
554={4499 }
555={162 }
556={8429 }
557={1984 }
558={9159 }
559={4835 }
560={9063 }
561={9184 }
562={4776 }
563={6650 }
564={9161 }
565={187 }
566={3036 }
567={177 }
568={801 }
569={4754 }
570={8501 }
571={8493 }
572={1325 }
573={1254 }
574={9547 }
575={9139 }
576={8480 }
577={8567 }
578={9093 }
579={8264 }
580={8404 }
581={9040 }
582={796 }
583={6731 }
584={8487 }
585={8091 }
586={6741 }
587={4734 }
588={8094 }
589={3015 }
590={6775 }
591={4190 }
592={8140 }
593={6762 }
594={6910 }
595={630 }
596={6735 }
597={5007 }
598={8484 }
599={8756 }
600={8922 }
601={8382 }
602={8892 }
603={4246 }
604={2788 }
605={2202 }
606={11189 }
607={723 }
608={8939 }
609={8422 }
610={8383 }
611={1374 }
612={3306 }
613={8398 }
614={6836 }
615={2488 }
616={6841 }
617={4950 }
618={8143 }
619={8359 }
620={8900 }
621={1812 }
622={8366 }
623={9069 }
624={8412 }
625={6975 }
626={3296 }
627={6894 }
628={8839 }
629={8395 }
630={1414 }
631={8446 }
632={8417 }
633={3030 }
634={8441 }
635={8809 }
636={4157 }
637={566 }
638={8495 }
639={4292 }
640={8829 }
641={8482 }
642={8479 }
643={173 }
644={933 }
645={8490 }
646={8135 }
647={2960 }
648={8449 }
649={893 }
650={8821 }
651={8150 }
652={8779 }
653={2402 }
654={9079 }
655={4216 }
656={8437 }
657={8127 }
658={8287 }
659={8887 }
660={8121 }
661={1211 }
662={8059 }
663={8416 }
664={6997 }
665={8178 }
666={8504 }
667={7009 }
668={8195 }
669={8305 }
670={8675 }
671={3682 }
672={8240 }
673={8297 }
674={8273 }
675={8216 }
676={6960 }
677={8148 }
678={8319 }
679={8139 }
680={2438 }
681={7679 }
682={8315 }
683={8080 }
684={8293 }
685={7546 }
686={8341 }
687={8053 }
688={2785 }
689={8372 }
690={2145 }
691={7101 }
692={8330 }
693={8407 }
694={8527 }
695={8272 }
696={8511 }
697={8525 }
698={4471 }
699={8399 }
700={8057 }
701={8360 }
702={7041 }
703={8353 }
704={8524 }
705={8505 }
706={8521 }
707={8507 }
708={323 }
709={8520 }
710={8522 }
711={8529 }
712={8515 }
713={8518 }
714={8513 }
715={8509 }
716={8538 }
717={2263 }
718={1662 }
719={8278 }
720={7177 }
721={2831 }
722={4775 }
723={8545 }
724={7252 }
725={4387 }
726={8184 }
727={8269 }
728={1288 }
729={7265 }
730={8166 }
731={7239 }
732={7736 }
733={8171 }
734={1024 }
735={46 }
736={7348 }
737={8167 }
738={4692 }
739={7426 }
740={8146 }
741={9465 }
742={4871 }
743={8555 }
744={2883 }
745={386 }
746={2908 }
747={1698 }
748={7409 }
749={4114 }
750={645 }
751={2357 }
752={4921 }
753={7578 }
754={450 }
755={1936 }
756={8162 }
757={4874 }
758={425 }
759={8200 }
760={8122 }
761={8225 }
762={8351 }
763={8291 }
764={9152 }
765={9226 }
766={8065 }
767={8044 }
768={8596 }
769={8595 }
770={8597 }
771={8553 }
772={8544 }
773={8554 }
774={8565 }
775={8562 }
776={8576 }
777={8571 }
778={8578 }
779={8569 }
780={8552 }
781={8559 }
782={8563 }
783={8574 }
784={8579 }
785={8587 }
786={8593 }
787={8591 }
788={8590 }
789={8206 }
790={8245 }
791={8321 }
792={8233 }
793={8134 }
794={8410 }
795={7587 }
796={1253 }
797={11312 }
798={2648 }
799={5783 }
800={7586 }
801={8616 }
802={8653 }
803={8652 }
804={8661 }
805={8660 }
806={8654 }
807={8659 }
808={9267 }
809={9272 }
810={9268 }
811={9275 }
812={9273 }
813={9271 }
814={9274 }
815={9269 }
816={9270 }
817={9278 }
818={9287 }
819={9284 }
820={9286 }
821={9282 }
822={9285 }
823={9291 }
824={9290 }
825={9292 }
826={9298 }
827={9299 }
828={9296 }
829={9295 }
830={9293 }
831={9294 }
832={9300 }
833={9301 }
834={9302 }
835={9305 }
836={9276 }
837={9320 }
838={9314 }
839={9311 }
840={9319 }
841={9317 }
842={9310 }
843={9316 }
844={9313 }
845={9322 }
846={9325 }
847={9324 }
848={9323 }
849={9277 }
850={9283 }
851={9281 }
852={9280 }
853={9289 }
854={9288 }
855={9297 }
856={9304 }
857={9312 }
858={9307 }
859={9318 }
860={9326 }
861={9321 }
862={9308 }
863={9306 }
864={9315 }
865={9303 }
866={9354 }
867={9358 }
868={9243 }
869={9380 }
870={9259 }
871={9382 }
872={9309 }
873={9279 }
874={7377 }
875={9433 }
876={4729 }
877={2856 }
878={7599 }
879={7656 }
880={9655 }
881={9651 }
882={9663 }
883={9682 }
884={9686 }
885={9679 }
886={9680 }
887={9671 }
888={9660 }
889={9669 }
890={9675 }
891={9676 }
892={9683 }
893={9693 }
894={9684 }
895={9685 }
896={9644 }
897={9643 }
898={9633 }
899={9638 }
900={9628 }
901={9637 }
902={9630 }
903={9634 }
904={9636 }
905={9631 }
906={9589 }
907={9590 }
908={9626 }
909={9627 }
910={9588 }
911={9640 }
912={9641 }
913={9639 }
914={9632 }
915={9635 }
916={7567 }
917={9921 }
918={9629 }
919={9919 }
920={9917 }
921={9920 }
922={9918 }
923={9916 }
924={9587 }
925={9586 }
926={7562 }
927={7568 }
928={7559 }
929={7558 }
930={7563 }
931={7561 }
932={7547 }
933={7553 }
934={7660 }
935={7557 }
936={7570 }
937={7564 }
938={7521 }
939={7522 }
940={7528 }
941={7516 }
942={7529 }
943={7526 }
944={7527 }
945={7595 }
946={9592 }
947={9648 }
948={9646 }
949={9647 }
950={9649 }
951={9657 }
952={9667 }
953={9672 }
954={9661 }
955={9659 }
956={9653 }
957={9662 }
958={9670 }
959={9677 }
960={9689 }
961={9687 }
962={9690 }
963={9688 }
964={9668 }
965={9665 }
966={9936 }
967={9652 }
968={9934 }
969={9591 }
970={9585 }
971={7565 }
972={7548 }
973={7556 }
974={7573 }
975={9597 }
976={9599 }
977={9645 }
978={9594 }
979={9593 }
980={9595 }
981={7579 }
982={7530 }
983={9596 }
984={9600 }
985={9602 }
986={9609 }
987={9598 }
988={9601 }
989={7598 }
990={7566 }
991={7550 }
992={7569 }
993={7555 }
994={9604 }
995={9606 }
996={9611 }
997={9612 }
998={9608 }
999={9610 }
1000={9607 }
1001={9614 }
1002={9613 }
1003={9618 }
1004={9621 }
1005={9624 }
1006={9623 }
1007={9625 }
1008={9622 }
1009={9620 }
1010={9619 }
1011={9617 }
1012={9615 }
1013={9616 }
1014={9664 }
1015={9650 }
1016={9654 }
1017={9658 }
1018={9674 }
1019={9678 }
1020={9697 }
1021={9701 }
1022={9705 }
1023={9706 }
1024={9711 }
1025={9709 }
1026={9703 }
1027={9700 }
1028={9698 }
1029={9699 }
1030={9696 }
1031={9694 }
1032={9695 }
1033={9692 }
1034={9691 }
1035={9702 }
1036={9704 }
1037={9708 }
1038={9710 }
1039={9712 }
1040={9707 }
1041={9715 }
1042={9713 }
1043={9714 }
1044={9642 }
1045={9939 }
1046={9656 }
1047={9946 }
1048={9952 }
1049={9603 }
1050={9964 }
1051={9963 }
1052={9961 }
1053={1107 }
1054={9962 }
1055={10012 }
1056={10013 }
1057={10022 }
1058={10021 }
1059={10023 }
1060={8615 }
1061={8617 }
1062={8618 }
1063={8619 }
1064={8620 }
1065={8622 }
1066={8624 }
1067={8625 }
1068={8630 }
1069={8627 }
1070={8632 }
1071={8634 }
1072={8636 }
1073={8638 }
1074={8631 }
1075={8633 }
1076={8640 }
1077={8639 }
1078={8642 }
1079={8645 }
1080={8647 }
1081={8648 }
1082={8649 }
1083={8650 }
1084={8621 }
1085={8623 }
1086={8626 }
1087={8628 }
1088={8629 }
1089={8635 }
1090={8637 }
1091={8643 }
1092={8646 }
1093={8644 }
1094={8656 }
1095={8658 }
1096={8657 }
1097={10760 }
1098={257 }
1099={10042 }
1100={11203 }
1101={11204 }
1102={11201 }
1103={11199 }
1104={11197 }
1105={11196 }
1106={11229 }
1107={11245 }
1108={11250 }
1109={11249 }
1110={11252 }
1111={11246 }
1112={11247 }
1113={11253 }
1114={11254 }
1115={11255 }
1116={11256 }
