1 19
1 57
1 90
1 96
1 167
1 239
1 244
1 314
1 335
1 382
1 402
1 455
1 479
1 545
1 562
1 639
1 662
1 676
1 677
1 680
1 695
1 755
1 836
1 859
1 871
1 1011
1 1069
1 1097
1 1107
1 1188
1 1225
1 1254
1 1329
1 1331
1 1367
1 1369
1 1382
1 1416
1 1440
1 1456
1 1497
1 1503
1 1520
1 1530
1 1543
1 1629
1 1651
1 1664
1 1676
1 1679
1 1740
1 1782
1 1796
1 1803
1 1874
1 1890
1 2008
1 2065
1 2104
1 2164
1 2193
1 2200
1 2223
1 2230
1 2239
1 2282
1 2290
1 2372
1 2375
1 2448
1 2496
1 2527
1 2534
1 2582
1 2700
1 2715
1 2728
1 5235
1 4092
1 2785
1 2797
1 2911
1 2962
1 2986
1 3014
1 3040
1 3042
1 3043
1 3091
1 3093
1 3148
1 3186
1 3199
1 3221
1 3242
1 3250
1 3255
1 3341
1 3347
1 3382
1 3399
1 9452
1 3466
1 3469
1 3485
1 3501
1 3546
1 3577
1 3599
1 3660
1 3676
1 3775
1 3818
1 3877
1 4006
1 4080
1 4157
1 4167
1 4242
1 4265
1 4285
1 4381
1 4570
1 4615
1 4633
1 4648
1 4659
1 4706
1 4710
1 4743
1 4885
1 4889
1 4923
1 4941
1 4951
1 4968
1 5089
1 5143
1 5217
1 5285
1 5300
1 5377
1 5428
1 5438
1 5445
1 5498
1 5510
1 5527
1 5530
1 5546
1 5548
1 5584
1 5596
1 5613
1 5644
1 5655
1 5739
1 5799
1 5880
1 5927
1 5941
1 5967
1 6017
1 6063
1 6104
1 6125
1 6130
1 6158
1 6217
1 6218
1 6246
1 6285
1 6302
1 6450
1 6463
1 6470
1 6545
1 6555
1 6599
1 6645
1 6767
1 6817
1 6941
1 6960
1 7006
1 7154
1 7175
1 7252
1 7454
1 7601
1 7613
1 8461
1 8469
1 8597
1 8615
1 8625
1 8629
1 8634
1 8640
1 8641
1 8642
1 8644
1 8648
1 8657
1 8659
1 8693
1 8769
1 8775
1 8900
1 8930
1 8989
1 8991
1 9013
1 9064
1 9068
1 9181
1 9190
1 9435
1 9443
1 9453
1 9456
1 9458
1 9459
1 9460
1 9511
1 9576
1 9640
1 9963
1 9965
1 9967
1 9968
1 9969
1 9971
1 9975
1 10042
1 10059
1 10061
1 10095
1 10123
1 10139
1 10155
1 10227
1 10247
1 10249
1 10267
1 10319
1 10371
1 10484
1 10546
1 10576
1 10598
1 10650
1 10677
1 10694
1 10695
1 10758
1 10772
1 10784
1 10831
1 10857
1 10887
1 10912
1 10939
1 11013
1 11072
1 11077
1 11144
1 11170
1 11175
