
state={
	id=127
	name="STATE_127"

	history={
		buildings = {
			infrastructure = 2
			arms_factory = 0
			industrial_complex = 0
			air_base = 0
			anti_air_building = 0
			fuel_silo = 0
			radar_station = 0
			rocket_site = 0

		}
		1940.5.10 = {
			buildings = {
				infrastructure = 2
				arms_factory = 0
				industrial_complex = 0
				air_base = 0
				anti_air_building = 0
				fuel_silo = 0
				radar_station = 0
				rocket_site = 0

			}

		}
		1941.6.21 = {
			buildings = {
				infrastructure = 2
				arms_factory = 0
				industrial_complex = 0
				air_base = 0
				anti_air_building = 0
				fuel_silo = 0
				radar_station = 0
				rocket_site = 0

			}

		}
		1942.11.19 = {
			buildings = {
				infrastructure = 2
				arms_factory = 0
				industrial_complex = 0
				air_base = 0
				anti_air_building = 0
				fuel_silo = 0
				radar_station = 0
				rocket_site = 0

			}

		}
		1943.7.11 = {
			buildings = {
				infrastructure = 2
				arms_factory = 0
				industrial_complex = 0
				air_base = 0
				anti_air_building = 0
				fuel_silo = 0
				radar_station = 0
				rocket_site = 0

			}

		}
		1944.6.6 = {
			buildings = {
				infrastructure = 2
				arms_factory = 0
				industrial_complex = 0
				air_base = 0
				anti_air_building = 0
				fuel_silo = 0
				radar_station = 0
				rocket_site = 0

			}

		}
		1944.12.14 = {
			buildings = {
				infrastructure = 2
				arms_factory = 0
				industrial_complex = 0
				air_base = 0
				anti_air_building = 0
				fuel_silo = 0
				radar_station = 0
				rocket_site = 0

			}

		}
		1945.3.20 = {
			buildings = {
				infrastructure = 2
				arms_factory = 0
				industrial_complex = 0
				air_base = 0
				anti_air_building = 0
				fuel_silo = 0
				radar_station = 0
				rocket_site = 0

			}

		}
		owner = SOV
		add_core_of = SOV

		victory_points = { 400 1 } #127
		victory_points = { 3888 1 } #127
		victory_points = { 10879 1 } #127
		victory_points = { 10886 3 } #127
		victory_points = { 10921 1 } #127

	}

	provinces={
		400 2199 3888 10827 10838 10879 10886 10921 10951
	}
	manpower=1183000
	buildings_max_level_factor=1.000
	state_category=rural
	local_supplies=0.000
}
