
state={
	id=14
	name="STATE_14"
	provinces={
		8460
	}

	history={
		buildings = {
			infrastructure = 4
		}
		owner = HOL

		1940.6.22 = {
			owner = GNL
		}
	}
	manpower=1
	state_category = river_crossing
	buildings_max_level_factor=1.000
}
