
state={
	id=169
	name="STATE_169"
	provinces={
		8444
	}

	history={
		buildings = {
			infrastructure = 3
		}
		owner = HOL

		1940.6.22 = {
			owner = GNL
		}
	}
	manpower=1
	state_category = river_crossing
	buildings_max_level_factor=1.000
}
