state={
	id=209
	name="STATE_209"
	provinces={
		80 1326 1329 3289 3819 5198 5201 5205 5214
	}

	history={
		buildings = {
			infrastructure = 3
			arms_factory = 0
			industrial_complex = 1
			air_base = 0
			anti_air_building = 0
			fuel_silo = 0
			radar_station = 0
			rocket_site = 0
		}

		1940.5.10 = {
			buildings = {
				infrastructure = 3
				arms_factory = 0
				industrial_complex = 2
				air_base = 0
				anti_air_building = 0
				fuel_silo = 0
				radar_station = 0
				rocket_site = 0
			}
		}
		1941.6.21 = {
			buildings = {
				infrastructure = 3
				arms_factory = 1
				industrial_complex = 2
				air_base = 0
				anti_air_building = 0
				fuel_silo = 0
				radar_station = 0
				rocket_site = 0
			}
		}
		1942.11.19 = {
			buildings = {
				infrastructure = 3
				arms_factory = 1
				industrial_complex = 2
				air_base = 0
				anti_air_building = 0
				fuel_silo = 0
				radar_station = 0
				rocket_site = 0
			}
		}
		1943.7.11 = {
			buildings = {
				infrastructure = 3
				arms_factory = 1
				industrial_complex = 2
				air_base = 0
				anti_air_building = 0
				fuel_silo = 0
				radar_station = 0
				rocket_site = 0
			}
		}
		1944.6.6 = {
			buildings = {
				infrastructure = 3
				arms_factory = 1
				industrial_complex = 3
				air_base = 0
				anti_air_building = 0
				fuel_silo = 0
				radar_station = 0
				rocket_site = 0
			}
		}


		1944.12.14 = {
			buildings = {
				infrastructure = 3
				arms_factory = 1
				industrial_complex = 3
				air_base = 0
				anti_air_building = 0
				fuel_silo = 0
				radar_station = 0
				rocket_site = 0
			}
		}
		1945.3.20 = {
			buildings = {
				infrastructure = 3
				arms_factory = 1
				industrial_complex = 3
				air_base = 0
				anti_air_building = 0
				fuel_silo = 0
				radar_station = 0
				rocket_site = 0
			}
		}
		owner = LIT
		add_core_of = LIT

		1941.1.1 = {
			owner = SOV
			controller = SOV
		}
		1942.11.19 = {
			owner = GOS
			controller = GOS
			add_core_of = GOS
		}

		1944.12.16 = {
			controller = SOV
		}
        victory_points = { 1326 1 }
        victory_points = { 1329 5 }
        victory_points = { 5214 2 }
	}
	manpower=697100
    state_category = town
	buildings_max_level_factor=1.000
}
