
state={
	id=232
	name="STATE_232"
	resources={
		steel=36.000
	}

	history={
		buildings = {
			infrastructure = 4
			arms_factory = 2
			industrial_complex = 4
			air_base = 3
			anti_air_building = 0
				dockyard = 3
			fuel_silo = 0
			radar_station = 0
			rocket_site = 0

		}
		1940.5.10 = {
			buildings = {
				infrastructure = 4
				arms_factory = 2
				industrial_complex = 6
				air_base = 3
				anti_air_building = 0
				dockyard = 3
				fuel_silo = 0
				radar_station = 0
				rocket_site = 0

			}

		}
		1941.6.21 = {
			buildings = {
				infrastructure = 4
				arms_factory = 4
				industrial_complex = 6
				air_base = 3
				anti_air_building = 0
				dockyard = 3
				fuel_silo = 0
				radar_station = 0
				rocket_site = 0

			}

		}
		1942.11.19 = {
			buildings = {
				infrastructure = 4
				arms_factory = 4
				industrial_complex = 6
				air_base = 3
				anti_air_building = 0
				dockyard = 3
				fuel_silo = 0
				radar_station = 0
				rocket_site = 0

			}

		}
		1943.7.11 = {
			buildings = {
				infrastructure = 4
				arms_factory = 4
				industrial_complex = 6
				air_base = 3
				anti_air_building = 0
				dockyard = 3
				fuel_silo = 0
				radar_station = 0
				rocket_site = 0

			}

		}
		1944.6.6 = {
			buildings = {
				infrastructure = 4
				arms_factory = 4
				industrial_complex = 6
				air_base = 3
				anti_air_building = 0
				dockyard = 3
				fuel_silo = 0
				radar_station = 0
				rocket_site = 0

			}

		}
		1944.12.14 = {
			buildings = {
				infrastructure = 4
				arms_factory = 4
				industrial_complex = 6
				air_base = 3
				anti_air_building = 0
				dockyard = 3
				fuel_silo = 0
				radar_station = 0
				rocket_site = 0

			}

		}
		1945.3.20 = {
			buildings = {
				infrastructure = 4
				arms_factory = 4
				industrial_complex = 6
				air_base = 3
				anti_air_building = 0
				dockyard = 3
				fuel_silo = 0
				radar_station = 0
				rocket_site = 0

			}

		}
		owner = ENG
		add_core_of = ENG
		buildings = {
			1488 = {
				naval_base = 6

			}

		}
		victory_points = {
			239 20
		}
		victory_points = {
			5217 2
		}
		victory_points = {
			877 2
		}

	}

	provinces={
		239 877 1488 4639 4766 5217
	}
	manpower=5770454
	buildings_max_level_factor=1.000
	state_category=large_city
	local_supplies=0.000
}
