
state={
	id=435
	name="STATE_435"

	history={
		buildings = {
			infrastructure = 3
			arms_factory = 0
			industrial_complex = 1
			air_base = 0
			anti_air_building = 0
			fuel_silo = 0
			radar_station = 0
			rocket_site = 0
		}

		1940.5.10 = {
			buildings = {
				infrastructure = 3
				arms_factory = 1
				industrial_complex = 1
				air_base = 0
				anti_air_building = 0
				fuel_silo = 0
				radar_station = 0
				rocket_site = 0
			}
		}
		1941.6.21 = {
			buildings = {
				infrastructure = 3
				arms_factory = 1
				industrial_complex = 1
				air_base = 0
				anti_air_building = 0
				fuel_silo = 0
				radar_station = 0
				rocket_site = 0
			}
		}
		1942.11.19 = {
			buildings = {
				infrastructure = 3
				arms_factory = 1
				industrial_complex = 1
				air_base = 0
				anti_air_building = 0
				fuel_silo = 0
				radar_station = 0
				rocket_site = 0
			}
		}
		1943.7.11 = {
			buildings = {
				infrastructure = 3
				arms_factory = 1
				industrial_complex = 1
				air_base = 0
				anti_air_building = 0
				fuel_silo = 0
				radar_station = 0
				rocket_site = 0
			}
		}
		1944.6.6 = {
			buildings = {
				infrastructure = 3
				arms_factory = 1
				industrial_complex = 1
				air_base = 0
				anti_air_building = 0
				fuel_silo = 0
				radar_station = 0
				rocket_site = 0
			}
		}


		1944.12.14 = {
			buildings = {
				infrastructure = 3
				arms_factory = 1
				industrial_complex = 1
				air_base = 0
				anti_air_building = 0
				fuel_silo = 0
				radar_station = 0
				rocket_site = 0
			}
		}
		1945.3.20 = {
			buildings = {
				infrastructure = 3
				arms_factory = 1
				industrial_complex = 1
				air_base = 0
				anti_air_building = 0
				fuel_silo = 0
				radar_station = 0
				rocket_site = 0
			}
		}
		owner = AUS
		add_core_of = AUS
		add_core_of = GER
		1939.1.1 = {
			owner = GER
			controller = GER

		}
        victory_points = { 6019 1 }
        victory_points = { 6061 1 }
        victory_points = { 4687 5 }
        victory_points = { 2728 20 }
        victory_points = { 6014 3 }
	}

	provinces={
		1478 2575 2711 2728 4150 4534 4687 5993 6014 6019 6027 6046 6061 8228 8229
	}
	manpower=905089
    state_category = town
	buildings_max_level_factor=1.000
}
