
state={
	id=443
	name="STATE_443"
	resources={
		steel=5.000
		aluminium=160.000
	}

	history={
		buildings = {
			infrastructure = 2
			arms_factory = 0
			industrial_complex = 0
			air_base = 0
			anti_air_building = 0
			fuel_silo = 0
			radar_station = 0
			rocket_site = 0

		}
		1940.5.10 = {
			buildings = {
				infrastructure = 2
				arms_factory = 0
				industrial_complex = 1
				air_base = 0
				anti_air_building = 0
				fuel_silo = 0
				radar_station = 0
				rocket_site = 0

			}

		}
		1941.6.21 = {
			buildings = {
				infrastructure = 2
				arms_factory = 0
				industrial_complex = 1
				air_base = 0
				anti_air_building = 0
				fuel_silo = 0
				radar_station = 0
				rocket_site = 0

			}

		}
		1942.11.19 = {
			buildings = {
				infrastructure = 2
				arms_factory = 0
				industrial_complex = 1
				air_base = 0
				anti_air_building = 0
				fuel_silo = 0
				radar_station = 0
				rocket_site = 0

			}

		}
		1943.7.11 = {
			buildings = {
				infrastructure = 2
				arms_factory = 0
				industrial_complex = 1
				air_base = 0
				anti_air_building = 0
				fuel_silo = 0
				radar_station = 0
				rocket_site = 0

			}

		}
		1944.6.6 = {
			buildings = {
				infrastructure = 2
				arms_factory = 0
				industrial_complex = 1
				air_base = 0
				anti_air_building = 0
				fuel_silo = 0
				radar_station = 0
				rocket_site = 0

			}

		}
		1944.12.14 = {
			buildings = {
				infrastructure = 2
				arms_factory = 0
				industrial_complex = 1
				air_base = 0
				anti_air_building = 0
				fuel_silo = 0
				radar_station = 0
				rocket_site = 0

			}

		}
		1945.3.20 = {
			buildings = {
				infrastructure = 2
				arms_factory = 0
				industrial_complex = 1
				air_base = 0
				anti_air_building = 0
				fuel_silo = 0
				radar_station = 0
				rocket_site = 0

			}

		}
		owner = HUN
		add_core_of = HUN
		victory_points = {
			1781 1 
		}
		victory_points = {
			6024 3 
		}

	}

	provinces={
		1781 6024 6041 9518 9519 9835 9844 11357 
	}
	manpower=311685
	buildings_max_level_factor=1.000
	state_category=rural
	local_supplies=0.000
}
