
state={
	id=454
	name="STATE_454"

	history={
		buildings = {
			infrastructure = 3
			arms_factory = 0
			industrial_complex = 0
			air_base = 0
			anti_air_building = 0
			fuel_silo = 0
			radar_station = 0
			rocket_site = 0

		}
		1940.5.10 = {
			buildings = {
				infrastructure = 3
				arms_factory = 0
				industrial_complex = 0
				air_base = 0
				anti_air_building = 0
				fuel_silo = 0
				radar_station = 0
				rocket_site = 0

			}

		}
		1941.6.21 = {
			buildings = {
				infrastructure = 3
				arms_factory = 0
				industrial_complex = 0
				air_base = 0
				anti_air_building = 0
				fuel_silo = 0
				radar_station = 0
				rocket_site = 0

			}

		}
		1942.11.19 = {
			buildings = {
				infrastructure = 3
				arms_factory = 0
				industrial_complex = 0
				air_base = 0
				anti_air_building = 0
				fuel_silo = 0
				radar_station = 0
				rocket_site = 0

			}

		}
		1943.7.11 = {
			buildings = {
				infrastructure = 3
				arms_factory = 0
				industrial_complex = 0
				air_base = 0
				anti_air_building = 0
				fuel_silo = 0
				radar_station = 0
				rocket_site = 0

			}

		}
		1944.6.6 = {
			buildings = {
				infrastructure = 3
				arms_factory = 0
				industrial_complex = 0
				air_base = 0
				anti_air_building = 0
				fuel_silo = 0
				radar_station = 0
				rocket_site = 0

			}

		}
		1944.12.14 = {
			buildings = {
				infrastructure = 3
				arms_factory = 0
				industrial_complex = 0
				air_base = 0
				anti_air_building = 0
				fuel_silo = 0
				radar_station = 0
				rocket_site = 0

			}

		}
		1945.3.20 = {
			buildings = {
				infrastructure = 3
				arms_factory = 0
				industrial_complex = 0
				air_base = 0
				anti_air_building = 0
				fuel_silo = 0
				radar_station = 0
				rocket_site = 0

			}

		}
		owner = FRA
		add_core_of = FRA
		1941.1.1 = {
			owner = GFR
			controller = GFR
			add_core_of = GFR
			add_core_of = EFR

		}
		1943.1.1 = {
			remove_core_of = EFR

		}
		1944.12.16 = {
			owner = FRA
			controller = FRA

		}
		victory_points = {
			1064 5 
		}
		victory_points = {
			1292 2 
		}
		victory_points = {
			1663 5 
		}
		victory_points = {
			3382 20 
		}
		victory_points = {
			5969 4 
		}

	}

	provinces={
		1064 1291 1292 1499 1663 1758 1957 3382 3554 3715 4051 4071 4680 4802 5945 5969 5994 6043 6058 6122 6137 6145 6151 6164 8202 11356 
	}
	manpower=254863
	buildings_max_level_factor=1.000
	state_category=town
	local_supplies=0.000
}
