
state={
	id=456
	name="STATE_456"

	history={
		buildings = {
			infrastructure = 2
			arms_factory = 1
			industrial_complex = 0
			air_base = 0
			anti_air_building = 0
			fuel_silo = 0
			radar_station = 0
			rocket_site = 0
		}

		1940.5.10 = {
			buildings = {
				infrastructure = 2
				arms_factory = 1
				industrial_complex = 0
				air_base = 0
				anti_air_building = 0
				fuel_silo = 0
				radar_station = 0
				rocket_site = 0
			}
		}
		1941.6.21 = {
			buildings = {
				infrastructure = 2
				arms_factory = 1
				industrial_complex = 0
				air_base = 0
				anti_air_building = 0
				fuel_silo = 0
				radar_station = 0
				rocket_site = 0
			}
		}
		1942.11.19 = {
			buildings = {
				infrastructure = 2
				arms_factory = 1
				industrial_complex = 0
				air_base = 0
				anti_air_building = 0
				fuel_silo = 0
				radar_station = 0
				rocket_site = 0
			}
		}
		1943.7.11 = {
			buildings = {
				infrastructure = 2
				arms_factory = 1
				industrial_complex = 0
				air_base = 0
				anti_air_building = 0
				fuel_silo = 0
				radar_station = 0
				rocket_site = 0
			}
		}
		1944.6.6 = {
			buildings = {
				infrastructure = 2
				arms_factory = 1
				industrial_complex = 0
				air_base = 0
				anti_air_building = 0
				fuel_silo = 0
				radar_station = 0
				rocket_site = 0
			}
		}


		1944.12.14 = {
			buildings = {
				infrastructure = 2
				arms_factory = 1
				industrial_complex = 0
				air_base = 0
				anti_air_building = 0
				fuel_silo = 0
				radar_station = 0
				rocket_site = 0
			}
		}
		1945.3.20 = {
			buildings = {
				infrastructure = 2
				arms_factory = 1
				industrial_complex = 0
				air_base = 0
				anti_air_building = 0
				fuel_silo = 0
				radar_station = 0
				rocket_site = 0
			}
		}
		owner = ROM
		add_core_of = ROM

    	victory_points = { 1362 1 }
	}

	provinces={
		431 1362 6174 9809 9816
	}
	manpower=503000
	buildings_max_level_factor=1.000
	state_category=rural
}
