
state={
	id=49
	name="STATE_49"

	history={
		buildings = {
			infrastructure = 2
			arms_factory = 0
			industrial_complex = 0
			air_base = 0
			anti_air_building = 0
			fuel_silo = 0
			radar_station = 0
			rocket_site = 0

		}
		1940.5.10 = {
			buildings = {
				infrastructure = 2
				arms_factory = 0
				industrial_complex = 1
				air_base = 0
				anti_air_building = 0
				fuel_silo = 0
				radar_station = 0
				rocket_site = 0

			}

		}
		1941.6.21 = {
			buildings = {
				infrastructure = 2
				arms_factory = 0
				industrial_complex = 1
				air_base = 0
				anti_air_building = 0
				fuel_silo = 0
				radar_station = 0
				rocket_site = 0

			}

		}
		1942.11.19 = {
			buildings = {
				infrastructure = 2
				arms_factory = 0
				industrial_complex = 1
				air_base = 0
				anti_air_building = 0
				fuel_silo = 0
				radar_station = 0
				rocket_site = 0

			}

		}
		1943.7.11 = {
			buildings = {
				infrastructure = 2
				arms_factory = 2
				industrial_complex = 1
				air_base = 0
				anti_air_building = 0
				fuel_silo = 0
				radar_station = 0
				rocket_site = 0

			}

		}
		1944.6.6 = {
			buildings = {
				infrastructure = 2
				arms_factory = 2
				industrial_complex = 1
				air_base = 0
				anti_air_building = 0
				fuel_silo = 0
				radar_station = 0
				rocket_site = 0

			}

		}
		1944.12.14 = {
			buildings = {
				infrastructure = 2
				arms_factory = 2
				industrial_complex = 1
				air_base = 0
				anti_air_building = 0
				fuel_silo = 0
				radar_station = 0
				rocket_site = 0

			}

		}
		1945.3.20 = {
			buildings = {
				infrastructure = 2
				arms_factory = 2
				industrial_complex = 1
				air_base = 0
				anti_air_building = 0
				fuel_silo = 0
				radar_station = 0
				rocket_site = 0

			}

		}
		owner = SOV
		add_core_of = SOV

		victory_points = { 213 1 } #49
		victory_points = { 11067 3 } #49
		victory_points = { 1463 1 } #49
		victory_points = { 1360 1 } #49
		victory_points = { 51 5 } #49
		victory_points = { 604 1 } #49

	}

	provinces={
		21 51 213 315 318 599 604 708 1360 1463 1632 2926 5076 11047 11052 11063 11067 11083
	}
	manpower=564832
	buildings_max_level_factor=1.000
	state_category=rural
	local_supplies=0.000
}
