
state={
	id=750
	name="STATE_750"
	provinces={
		64 83 170 196 230 243 345 376 377 403 433 495 542 573 617 627 645 804 881 886 936 1025 1318 1335 1614 1645 1779 2022 2225 2349 2483 2707 3125 3195 3397 3521 4259 4376 4420 4479 4603 4649 7439 7444 7478 7479 7486
	}
	manpower=1
    state_category = rural
	buildings_max_level_factor=1.000
}
