state={
	id=927
	name="STATE_927"
	provinces={
		7568
	}
    history={
		buildings = {
			infrastructure = 3
		}
        owner = ALB
    }
    state_category = river_crossing
    manpower=1
	buildings_max_level_factor=1.000
}
