state={
	id=938
	name="STATE_938"
	provinces={
		7521
	}
    history={
		buildings = {
			infrastructure = 2
		}
        owner = BUL
    }
    state_category = river_crossing
    manpower=1
	buildings_max_level_factor=1.000
}
