state={
	id=944
	name="STATE_944"
	provinces={
		7527
	}
    history={
		buildings = {
			infrastructure = 2
		}
        owner = BUL
    }
    state_category = river_crossing
    manpower=1
	buildings_max_level_factor=1.000
}
