equipments = {

	mechanized_equipment = {
		year = 1936

		is_archetype = yes
		picture = archetype_motorized_equipment
		is_buildable = no
		type = {
			#infantry #Removing inf type
			mechanized
		}

		upgrades = {
			tank_reliability_upgrade
			tank_engine_upgrade
			tank_armor_upgrade
			mech_cost_upgrade
		}
		group_by = archetype

		interface_category = interface_category_land

		#Misc Abilities
		maximum_speed = 9
		reliability = 0.8

		#Defensive Abilities
		defense = 20
		breakthrough = 5
		hardness = 0.5
		armor_value = 20

		#Offensive Abilities
		ap_attack = 11
		soft_attack = 2
		air_attack = 0

		#Space taken in convoy
		lend_lease_cost = 1

		build_cost_ic = 7
		resources = {
			steel = 2
			#oil = 1
			rubber = 1
		}

		fuel_consumption = 2.4
	}

	# ~1941
	mechanized_equipment_1 = {
		year = 1939

		archetype = mechanized_equipment
		priority = 40
		visual_level = 0
	}

	# ~1943
	mechanized_equipment_2 = {
		year = 1941

		archetype = mechanized_equipment
		parent = mechanized_equipment_1
		priority = 40
		visual_level = 1

		maximum_speed = 10

		#Defensive Abilities
		defense = 23
		breakthrough = 5.5
		hardness = 0.525
		armor_value = 25

		#Offensive Abilities
		ap_attack = 16
		soft_attack = 3.5

		build_cost_ic = 7.75
		resources = {
			steel = 3
			rubber = 1
			#oil = 1
		}
	}

	# ~1945
	mechanized_equipment_3 = {
		year = 1943

		archetype = mechanized_equipment
		parent = mechanized_equipment_2
		priority = 40
		visual_level = 2

		maximum_speed = 11

		#Defensive Abilities
		defense = 30
		breakthrough = 6
		hardness = 0.55
		armor_value = 30

		#Offensive Abilities
		ap_attack = 21
		soft_attack = 5


		build_cost_ic = 8.5
		resources = {
			steel = 4
			rubber = 1
			#oil = 2
		}
	}

	# ~1945
	mechanized_equipment_4 = {
		year = 1943

		archetype = mechanized_equipment
		parent = mechanized_equipment_2
		priority = 40
		visual_level = 3

		maximum_speed = 12

		#Defensive Abilities
		defense = 35
		breakthrough = 6.5
		hardness = 0.575
		armor_value = 35

		#Offensive Abilities
		ap_attack = 26
		soft_attack = 6.5


		build_cost_ic = 9.25
		resources = {
			steel = 4
			rubber = 2
			#oil = 2
		}
	}

	# ~1945
	mechanized_equipment_5 = {
		year = 1943

		archetype = mechanized_equipment
		parent = mechanized_equipment_2
		priority = 40
		visual_level = 4

		maximum_speed = 13

		#Defensive Abilities
		defense = 40
		breakthrough = 7
		hardness = 0.6
		armor_value = 40

		#Offensive Abilities
		ap_attack = 31
		soft_attack = 8


		build_cost_ic = 10
		resources = {
			steel = 5
			rubber = 2
			#oil = 2
		}
	}
}
