technologies = {

	basic_machine_tools = {

		production_factory_max_efficiency_factor = 0.1


		path = {
			leads_to_tech = improved_machine_tools
			research_cost_coeff = 1
		}

		path = {
			leads_to_tech = concentrated_industry
			research_cost_coeff = 1
		}

		path = {
			leads_to_tech = dispersed_industry
			research_cost_coeff = 1
		}

		research_cost = 1.5
		start_year = 1936
		folder = {
			name = industry_folder
			position = { x = -1 y = 0 }
		}

		ai_will_do = {
			factor = 50
		}

		categories = {
			industry
		}
	}

	#Machine tools branch
	improved_machine_tools = {

		production_factory_max_efficiency_factor = 0.1

		path = {
			leads_to_tech = advanced_machine_tools
			research_cost_coeff = 1
		}

		path = {
			leads_to_tech = improved_equipment_conversion
			research_cost_coeff = 1
		}

		research_cost = 1.5
		start_year = 1937

		folder = {
			name = industry_folder
			position = { x = -1 y = 4 }
		}

		ai_will_do = {
			factor = 40


		}

		categories = {
			industry
		}
	}

	advanced_machine_tools = {

		production_factory_max_efficiency_factor = 0.1

		path = {
			leads_to_tech = assembly_line_production
			research_cost_coeff = 1
		}

		research_cost = 2
		start_year = 1939

		folder = {
			name = industry_folder
			position = { x = -1 y = 6 }
		}

		ai_will_do = {
			factor = 15


		}

		categories = {
			industry
		}
	}

	assembly_line_production = {

		production_factory_max_efficiency_factor = 0.1

		#path = {
		#	leads_to_tech = improved_machine_tools
		#	research_cost_coeff = 1
		#}

		path = {
			leads_to_tech = flexible_line
			research_cost_coeff = 1
		}

		path = {
			leads_to_tech = streamlined_line
			research_cost_coeff = 1
		}


		research_cost = 2
		start_year = 1941

		folder = {
			name = industry_folder
			position = { x = -1 y = 8 }
		}

		ai_will_do = {
			factor = 15


		}

		categories = {
			industry
		}
	}

	flexible_line = {

		production_factory_max_efficiency_factor = 0.05
		line_change_production_efficiency_factor = 0.10

		research_cost = 2.5
		start_year = 1943

		XOR = {
			streamlined_line
		}

		path = {
			leads_to_tech = flexible_line_a
			research_cost_coeff = 1
		}

		folder = {
			name = industry_folder
			position = { x = -2 y = 10 }
		}

		ai_will_do = {
			factor = 15


		}

		categories = {
			industry
		}
	}

	flexible_line_a = {

		production_factory_max_efficiency_factor = 0.05
		line_change_production_efficiency_factor = 0.10

		path = {
			leads_to_tech = streamlined_line_b
			research_cost_coeff = 1
		}

		research_cost = 2.5
		start_year = 1945

		folder = {
			name = industry_folder
			position = { x = -2 y = 12 }
		}

		ai_will_do = {
			factor = 4
		}

		categories = {
			industry
		}
	}

	streamlined_line = {

		production_factory_max_efficiency_factor = 0.05
		production_factory_efficiency_gain_factor = 0.05

		research_cost = 2.5
		start_year = 1943

		XOR = {
			flexible_line
		}

		path = {
			leads_to_tech = streamlined_line_a
			research_cost_coeff = 1
		}

		folder = {
			name = industry_folder
			position = { x = 0 y = 10 }
		}

		ai_will_do = {
			factor = 15



		}

		categories = {
			industry
		}
	}

	streamlined_line_a = {

		production_factory_max_efficiency_factor = 0.05
		production_factory_efficiency_gain_factor = 0.05

		path = {
			leads_to_tech = streamlined_line_b
			research_cost_coeff = 1
		}

		research_cost = 2.5
		start_year = 1945

		folder = {
			name = industry_folder
			position = { x = 0 y = 12 }
		}

		ai_will_do = {
			factor = 4
		}

		categories = {
			industry
		}
	}

	streamlined_line_b = {

		production_factory_max_efficiency_factor = 0.05
		production_factory_efficiency_gain_factor = 0.05

		research_cost = 2.5
		start_year = 1947

		folder = {
			name = industry_folder
			position = { x = -1 y = 14 }
		}

		ai_will_do = {
			factor = 4
		}

		categories = {
			industry
		}
	}

	#Conversion branch - Enabled in DoD
	improved_equipment_conversion = {

		equipment_conversion_speed = 0.20
		refit_ic_cost = -0.1
		allow_branch = {
			has_dlc = "Death or Dishonor"
		}

		path = {
			leads_to_tech = advanced_equipment_conversion
			research_cost_coeff = 1
		}

		research_cost = 1.5
		start_year = 1937

		folder = {
			name = industry_folder
			position = { x = 2 y = 4 }
		}

		ai_will_do = {
			factor = 1


		}

		categories = {
			industry
		}
	}

	advanced_equipment_conversion = {

		equipment_conversion_speed = 0.20
		refit_ic_cost = -0.1
		research_cost = 1.5
		start_year = 1941

		folder = {
			name = industry_folder
			position = { x = 2 y = 8 }
		}

		path = {
			leads_to_tech = modern_equipment_conversion
			research_cost_coeff = 1
		}

		ai_will_do = {
			factor = 1


		}

		categories = {
			industry
		}
	}

	modern_equipment_conversion = {

		equipment_conversion_speed = 0.20
		refit_ic_cost = -0.1
		research_cost = 1.5
		start_year = 1945

		folder = {
			name = industry_folder
			position = { x = 2 y = 12 }
		}

		ai_will_do = {
			factor = 1


		}

		categories = {
			industry
		}
	}

	###############
	concentrated_industry = {

		industrial_capacity_factory = 0.20
		industrial_capacity_dockyard = 0.15
		global_building_slots_factor = 0.40

		path = {
			leads_to_tech = concentrated_industry2
			research_cost_coeff = 1
		}

		research_cost = 2

		XOR = {
			dispersed_industry
		}

		folder = {
			name = industry_folder
			position = { x = 4 y = 2 }
		}

		ai_will_do = {
			factor = 25


		}

		categories = {
			industry
			concentrated_industry_category
		}

		ai_research_weights = {
			offensive = -1.0
		}
	}

	concentrated_industry2 = {

		industrial_capacity_factory = 0.20
		industrial_capacity_dockyard = 0.15
		global_building_slots_factor = 0.35

		path = {
			leads_to_tech = concentrated_industry3
			research_cost_coeff = 1
		}

		research_cost = 2
		start_year = 1937

		folder = {
			name = industry_folder
			position = { x = 4 y = 4 }
		}

		ai_will_do = {
			factor = 20



		}

		categories = {
			industry
			concentrated_industry_category
		}

		ai_research_weights = {
			offensive = -1.0
		}
	}

	concentrated_industry3 = {

		industrial_capacity_factory = 0.20
		industrial_capacity_dockyard = 0.15
		global_building_slots_factor = 0.30

		path = {
			leads_to_tech = concentrated_industry4
			research_cost_coeff = 1
		}

		research_cost = 2
		start_year = 1939

		folder = {
			name = industry_folder
			position = { x = 4 y = 6 }
		}

		ai_will_do = {
			factor = 15


		}

		categories = {
			industry
			concentrated_industry_category
		}

		ai_research_weights = {
			offensive = -1.0
		}
	}

	concentrated_industry4 = {

		industrial_capacity_factory = 0.20
		industrial_capacity_dockyard = 0.15
		global_building_slots_factor = 0.25

		path = {
			leads_to_tech = concentrated_industry5
			research_cost_coeff = 1
		}

		research_cost = 2
		start_year = 1941

		folder = {
			name = industry_folder
			position = { x = 4 y = 8 }
		}

		ai_will_do = {
			factor = 15


		}

		categories = {
			industry
			concentrated_industry_category
		}

		ai_research_weights = {
			offensive = -1.0
		}
	}

	concentrated_industry5 = {

		industrial_capacity_factory = 0.20
		industrial_capacity_dockyard = 0.15
		global_building_slots_factor = 0.20

		research_cost = 2
		start_year = 1943

		folder = {
			name = industry_folder
			position = { x = 4 y = 10 }
		}

		path = {
			leads_to_tech = concentrated_industry_a
			research_cost_coeff = 1
		}

		ai_will_do = {
			factor = 4
		}

		categories = {
			industry
			concentrated_industry_category
		}

		ai_research_weights = {
			offensive = -1.0
		}
	}

	concentrated_industry_a = {

		industrial_capacity_factory = 0.20
		industrial_capacity_dockyard = 0.15
		global_building_slots_factor = 0.15

		path = {
			leads_to_tech = concentrated_industry_b
			research_cost_coeff = 1
		}

		research_cost = 2
		start_year = 1945

		folder = {
			name = industry_folder
			position = { x = 4 y = 12 }
		}

		ai_will_do = {
			factor = 4
		}

		categories = {
			industry
			concentrated_industry_category
		}

		ai_research_weights = {
			offensive = -1.0
		}
	}

	concentrated_industry_b = {

		industrial_capacity_factory = 0.20
		industrial_capacity_dockyard = 0.15
		global_building_slots_factor = 0.10

		research_cost = 2
		start_year = 1947

		folder = {
			name = industry_folder
			position = { x = 4 y = 14 }
		}

		ai_will_do = {
			factor = 4
		}

		categories = {
			industry
			concentrated_industry_category
		}

		ai_research_weights = {
			offensive = -1.0
		}
	}

	dispersed_industry = {

		industrial_capacity_factory = 0.10
		industrial_capacity_dockyard = 0.15
		line_change_production_efficiency_factor = 0.05
		production_factory_max_efficiency_factor = 0.05
		production_factory_start_efficiency_factor = 0.05
		equipment_conversion_speed = 0.20
		industry_air_damage_factor = -0.15
		global_building_slots_factor = 0.3

		path = {
			leads_to_tech = dispersed_industry2
			research_cost_coeff = 1
		}

		research_cost = 2

		XOR = {
			concentrated_industry
		}

		folder = {
			name = industry_folder
			position = { x = 6 y = 2 }
		}

		ai_will_do = {
			factor = 25


		}

		categories = {
			industry
			dispersed_industry_category
		}

		ai_research_weights = {
			defensive = -1.0
		}
	}

	dispersed_industry2 = {

		industrial_capacity_factory = 0.10
		industrial_capacity_dockyard = 0.15
		line_change_production_efficiency_factor = 0.05
		production_factory_max_efficiency_factor = 0.05
		production_factory_start_efficiency_factor = 0.05
		equipment_conversion_speed = 0.10
		industry_air_damage_factor = -0.15
		global_building_slots_factor = 0.25

		path = {
			leads_to_tech = dispersed_industry3
			research_cost_coeff = 1
		}

		research_cost = 2
		start_year = 1937

		folder = {
			name = industry_folder
			position = { x = 6 y = 4 }
		}

		ai_will_do = {
			factor = 20


		}

		categories = {
			industry
			dispersed_industry_category
		}

		ai_research_weights = {
			defensive = -1.0
		}
	}

	dispersed_industry3 = {

		industrial_capacity_factory = 0.10
		industrial_capacity_dockyard = 0.15
		line_change_production_efficiency_factor = 0.05
		production_factory_start_efficiency_factor = 0.05
		industry_air_damage_factor = -0.15
		global_building_slots_factor = 0.20

		path = {
			leads_to_tech = dispersed_industry4
			research_cost_coeff = 1
		}

		research_cost = 2
		start_year = 1939

		folder = {
			name = industry_folder
			position = { x = 6 y = 6 }
		}

		ai_will_do = {
			factor = 15


		}

		categories = {
			industry
			dispersed_industry_category
		}

		ai_research_weights = {
			defensive = -1.0
		}
	}

	dispersed_industry4 = {

		industrial_capacity_factory = 0.10
		industrial_capacity_dockyard = 0.15
		line_change_production_efficiency_factor = 0.05
		production_factory_start_efficiency_factor = 0.05
		industry_air_damage_factor = -0.15
		global_building_slots_factor = 0.15

		path = {
			leads_to_tech = dispersed_industry5
			research_cost_coeff = 1
		}

		research_cost = 2
		start_year = 1941

		folder = {
			name = industry_folder
			position = { x = 6 y = 8 }
		}

		ai_will_do = {
			factor = 15


		}

		categories = {
			industry
			dispersed_industry_category
		}

		ai_research_weights = {
			defensive = -1.0
		}
	}

	dispersed_industry5 = {

		industrial_capacity_factory = 0.10
		industrial_capacity_dockyard = 0.15
		line_change_production_efficiency_factor = 0.05
		production_factory_start_efficiency_factor = 0.05
		industry_air_damage_factor = -0.15
		global_building_slots_factor = 0.10


		research_cost = 2
		start_year = 1943

		folder = {
			name = industry_folder
			position = { x = 6 y = 10 }
		}

		ai_will_do = {
			factor = 15
		}

		path = {
			leads_to_tech = dispersed_industry_a
			research_cost_coeff = 1
		}

		categories = {
			industry
			dispersed_industry_category
		}

		ai_research_weights = {
			defensive = -1.0
		}
	}

	dispersed_industry_a = {

		industrial_capacity_factory = 0.10
		industrial_capacity_dockyard = 0.15
		line_change_production_efficiency_factor = 0.05
		production_factory_start_efficiency_factor = 0.05
		industry_air_damage_factor = -0.15
		global_building_slots_factor = 0.05
		production_factory_max_efficiency_factor = 0.05

		path = {
			leads_to_tech = dispersed_industry_b
			research_cost_coeff = 1
		}

		research_cost = 2.1
		start_year = 1945

		folder = {
			name = industry_folder
			position = { x = 6 y = 12 }
		}

		ai_will_do = {
			factor = 4
		}

		categories = {
			industry
			dispersed_industry_category
		}

		ai_research_weights = {
			defensive = -1.0
		}
	}

	dispersed_industry_b = {

		industrial_capacity_factory = 0.10
		industrial_capacity_dockyard = 0.15
		line_change_production_efficiency_factor = 0.05
		production_factory_start_efficiency_factor = 0.05
		industry_air_damage_factor = -0.15
		production_factory_max_efficiency_factor = 0.05

		path = {
			leads_to_tech = dispersed_industry_c
			research_cost_coeff = 1
		}

		research_cost = 2.1
		start_year = 1948

		folder = {
			name = industry_folder
			position = { x = 6 y = 14 }
		}

		ai_will_do = {
			factor = 4
		}

		categories = {
			industry
			dispersed_industry_category
		}

		ai_research_weights = {
			defensive = -1.0
		}
	}

	fuel_silos = {

		enable_building = {
			building = fuel_silo
			level = 3
		}

		path = {
			leads_to_tech = synth_oil_experiments
			research_cost_coeff = 1
		}
		path = {
			leads_to_tech = fuel_refining
			research_cost_coeff = 1
		}

		research_cost = 1
		start_year = 1936
		folder = {
			name = industry_folder
			position = { x = 1 y = 0 }
		}

		categories = {
			industry
			synth_resources
		}

		ai_will_do = {
			factor = 1





		}
	}

	fuel_refining = {

		fuel_gain_factor = 0.2
		fuel_gain_factor_from_states = 0.1

		path = {
			leads_to_tech = fuel_refining2
			research_cost_coeff = 1
		}

		research_cost = 3
		start_year = 1936
		folder = {
			name = industry_folder
			position = { x = 3 y = 2 }
		}

		categories = {
			industry
			synth_resources
		}

		ai_will_do = {
			factor = 5

		}

	}

	fuel_refining2 = {

		fuel_gain_factor = 0.2
		fuel_gain_factor_from_states = 0.1

		path = {
			leads_to_tech = fuel_refining3
			research_cost_coeff = 1
		}

		research_cost = 3
		start_year = 1937
		folder = {
			name = industry_folder
			position = { x = 3 y = 4 }
		}

		categories = {
			industry
			synth_resources
		}

		ai_will_do = {
			factor = 5



		}

	}

	fuel_refining3 = {

		fuel_gain_factor = 0.2
		fuel_gain_factor_from_states = 0.1

		path = {
			leads_to_tech = fuel_refining4
			research_cost_coeff = 1
		}
		research_cost = 3
		start_year = 1939
		folder = {
			name = industry_folder
			position = { x = 3 y = 6 }
		}

		categories = {
			industry
			synth_resources
		}

		ai_will_do = {
			factor = 5





		}
	}

	fuel_refining4 = {

		fuel_gain_factor = 0.20
		fuel_gain_factor_from_states = 0.1

		path = {
			leads_to_tech = fuel_refining5
			research_cost_coeff = 1
		}
		research_cost = 3
		start_year = 1941
		folder = {
			name = industry_folder
			position = { x = 3 y = 8 }
		}

		categories = {
			industry
			synth_resources
		}

		ai_will_do = {
			factor = 5





		}
	}

	fuel_refining5 = {

		fuel_gain_factor = 0.20
		fuel_gain_factor_from_states = 0.1

		research_cost = 3
		start_year = 1943
		folder = {
			name = industry_folder
			position = { x = 3 y = 10 }
		}

		path = {
			leads_to_tech = fuel_refining6
			research_cost_coeff = 1
		}

		categories = {
			industry
			synth_resources
		}

		ai_will_do = {
			factor = 5
		}
	}

	fuel_refining6 = {

		fuel_gain_factor = 0.20
		fuel_gain_factor_from_states = 0.1

		research_cost = 3
		start_year = 1943
		folder = {
			name = industry_folder
			position = { x = 3 y = 12 }
		}

		path = {
			leads_to_tech = fuel_refining7
			research_cost_coeff = 1
		}

		categories = {
			industry
			synth_resources
		}

		ai_will_do = {
			factor = 5
		}
	}

	fuel_refining7 = {

		fuel_gain_factor = 0.20
		fuel_gain_factor_from_states = 0.1

		research_cost = 3
		start_year = 1943
		folder = {
			name = industry_folder
			position = { x = 3 y = 14 }
		}

		categories = {
			industry
			synth_resources
		}

		ai_will_do = {
			factor = 5
		}
	}

	synth_oil_experiments = {

		enable_building = {
			building = synthetic_refinery
			level = 3
		}

		path = {
			leads_to_tech = oil_processing
			research_cost_coeff = 1
		}
		path = {
			leads_to_tech = rubber_processing
			research_cost_coeff = 1
		}

		research_cost = 3
		start_year = 1936
		folder = {
			name = industry_folder
			position = { x = 0 y = 2 }
		}

		categories = {
			industry
			synth_resources
		}

		ai_will_do = {
			factor = 5

		}

		ai_research_weights = {
			oil = -2.0
		}
	}

	oil_processing = {

		fuel_gain_factor_from_states = 0.5

		start_year = 1937

		path = {
			leads_to_tech = improved_oil_processing
			research_cost_coeff = 1
		}

		research_cost = 1.5

		folder = {
			name = industry_folder
			position = { x = -1 y = 4 }
		}

		categories = {
			industry
			synth_resources
		}

		ai_will_do = {
			factor = 1

		}

		ai_research_weights = {
			oil = -2.0
		}

		show_effect_as_desc = yes
	}

	improved_oil_processing = {

		fuel_gain_factor_from_states = 0.5

		path = {
			leads_to_tech = advanced_oil_processing
			research_cost_coeff = 1
		}

		research_cost = 1.5
		start_year = 1939

		folder = {
			name = industry_folder
			position = { x = -1 y = 6 }
		}

		categories = {
			industry
			synth_resources
		}

		ai_will_do = {
			factor = 1

		}

		ai_research_weights = {
			oil = -2.0
		}

		show_effect_as_desc = yes
	}

	advanced_oil_processing = {

		fuel_gain_factor_from_states = 0.5

		path = {
			leads_to_tech = modern_oil_processing
			research_cost_coeff = 1
		}

		research_cost = 1.5
		start_year = 1941

		folder = {
			name = industry_folder
			position = { x = -1 y = 8 }
		}

		categories = {
			industry
			synth_resources
		}

		ai_will_do = {
			factor = 1

		}

		ai_research_weights = {
			rubber = -2.0
		}

		show_effect_as_desc = yes
	}

	modern_oil_processing = {

		fuel_gain_factor_from_states = 0.5

		research_cost = 1.5
		start_year = 1943

		folder = {
			name = industry_folder
			position = { x = -1 y = 10 }
		}

		path = {
			leads_to_tech = oil_processing_6
			research_cost_coeff = 1
		}

		categories = {
			industry
			synth_resources
		}

		ai_will_do = {
			factor = 0.5

		}

		ai_research_weights = {
			oil = -2.0
		}

		show_effect_as_desc = yes
	}

	oil_processing_6 = {

		fuel_gain_factor_from_states = 0.5

		research_cost = 1.5
		start_year = 1943

		folder = {
			name = industry_folder
			position = { x = -1 y = 12 }
		}

		path = {
			leads_to_tech = oil_processing_7
			research_cost_coeff = 1
		}

		categories = {
			industry
			synth_resources
		}

		ai_will_do = {
			factor = 0.5

		}

		ai_research_weights = {
			oil = -2.0
		}

		show_effect_as_desc = yes
	}

	oil_processing_7 = {

		fuel_gain_factor_from_states = 0.5

		research_cost = 1.5
		start_year = 1943

		folder = {
			name = industry_folder
			position = { x = -1 y = 14 }
		}

		categories = {
			industry
			synth_resources
		}

		ai_will_do = {
			factor = 0.5

		}

		ai_research_weights = {
			oil = -2.0
		}

		show_effect_as_desc = yes
	}

	#####################################
	rubber_processing = {

		on_research_complete = {
			modify_building_resources = {
				building = synthetic_refinery
				resource = rubber
				amount = 1
			}
		}

		path = {
			leads_to_tech = improved_rubber_processing
			research_cost_coeff = 1
		}

		research_cost = 1.5
		start_year = 1937

		folder = {
			name = industry_folder
			position = { x = 1 y = 4 }
		}

		categories = {
			industry
			synth_resources
		}

		ai_will_do = {
			factor = 1

		}

		ai_research_weights = {
			rubber = -2.0
		}

		show_effect_as_desc = yes
	}

	improved_rubber_processing = {

		on_research_complete = {
			modify_building_resources = {
				building = synthetic_refinery
				resource = rubber
				amount = 1
			}
		}

		path = {
			leads_to_tech = advanced_rubber_processing
			research_cost_coeff = 1
		}

		research_cost = 1.5
		start_year = 1939

		folder = {
			name = industry_folder
			position = { x = 1 y = 6 }
		}

		categories = {
			industry
			synth_resources
		}

		ai_will_do = {
			factor = 1

		}

		ai_research_weights = {
			rubber = -2.0
		}

		show_effect_as_desc = yes
	}

	advanced_rubber_processing = {

		on_research_complete = {
			modify_building_resources = {
				building = synthetic_refinery
				resource = rubber
				amount = 1
			}
		}

		path = {
			leads_to_tech = modern_rubber_processing
			research_cost_coeff = 1
		}

		research_cost = 1.5
		start_year = 1941

		folder = {
			name = industry_folder
			position = { x = 1 y = 8 }
		}

		categories = {
			industry
			synth_resources
		}

		ai_will_do = {
			factor = 1

		}

		ai_research_weights = {
			rubber = -2.0
		}

		show_effect_as_desc = yes
	}

	modern_rubber_processing = {

		on_research_complete = {
			modify_building_resources = {
				building = synthetic_refinery
				resource = rubber
				amount = 1
			}
		}

		path = {
			leads_to_tech = rubber_plant_a
			research_cost_coeff = 1
		}

		research_cost = 1.5
		start_year = 1943

		folder = {
			name = industry_folder
			position = { x = 1 y = 10 }
		}

		categories = {
			industry
			synth_resources
		}

		ai_will_do = {
			factor = 0.5

		}

		ai_research_weights = {
			rubber = -2.0
		}

		show_effect_as_desc = yes
	}

	rubber_plant_a = {

		on_research_complete = {
			modify_building_resources = {
				building = synthetic_refinery
				resource = rubber
				amount = 1
			}
		}

		path = {
			leads_to_tech = rubber_plant_b
			research_cost_coeff = 1
		}

		research_cost = 1.5
		start_year = 1945

		folder = {
			name = industry_folder
			position = { x = 1 y = 12 }
		}

		categories = {
			industry
			synth_resources
		}

		ai_will_do = {
			factor = 0.5

		}

		ai_research_weights = {
			rubber = -2.0
		}

		show_effect_as_desc = yes
	}

	rubber_plant_b = {

		on_research_complete = {
			modify_building_resources = {
				building = synthetic_refinery
				resource = rubber
				amount = 1
			}
		}

		research_cost = 1.5
		start_year = 1947

		folder = {
			name = industry_folder
			position = { x = 1 y = 14 }
		}

		categories = {
			industry
			synth_resources
		}

		ai_will_do = {
			factor = 0.5

		}

		ai_research_weights = {
			rubber = -2.0
		}

		show_effect_as_desc = yes
	}

	#####################################

	construction1 = {

		production_speed_buildings_factor = 0.10
		industry_repair_factor = 0.10

		path = {
			leads_to_tech = construction2
			research_cost_coeff = 1
		}
		path = {
			leads_to_tech = excavation1
			research_cost_coeff = 1
		}

		research_cost = 2
		start_year = 1936
		categories = {
			industry
			construction_tech
		}

		folder = {
			name = industry_folder
			position = { x = 0 y = 0 }
		}

		ai_will_do = {
			factor = 50
		}
	}

	excavation1 = {

		local_resources_factor = 0.10

		path = {
			research_cost_coeff = 1
		}

		research_cost = 2

		categories = {
			industry
			construction_tech
			excavation_tech
		}

		folder = {
			name = industry_folder
			position = { x = 2 y = 0 }
		}

		ai_will_do = {
			factor = 1
		}
	}

	construction2 = {

		production_speed_buildings_factor = 0.10
		industry_repair_factor = 0.10

		path = {
			leads_to_tech = construction3
			research_cost_coeff = 1
		}
		path = {
			leads_to_tech = excavation2
			research_cost_coeff = 1
		}

		research_cost = 2
		start_year = 1937

		categories = {
			industry
			construction_tech
		}

		folder = {
			name = industry_folder
			position = { x = 0 y = 2 }
		}

		ai_will_do = {
			factor = 4


		}
	}

	excavation2 = {

		local_resources_factor = 0.10

		path = {
			research_cost_coeff = 1
		}

		research_cost = 2
		start_year = 1937

		categories = {
			industry
			construction_tech
			excavation_tech
		}

		folder = {
			name = industry_folder
			position = { x = 2 y = 2 }
		}

		ai_will_do = {
			factor = 1
		}
	}

	construction3 = {

		production_speed_buildings_factor = 0.10
		industry_repair_factor = 0.10

		path = {
			leads_to_tech = construction4
			research_cost_coeff = 1
		}

		path = {
			leads_to_tech = excavation3
			research_cost_coeff = 1
		}

		research_cost = 2
		start_year = 1939

		categories = {
			industry
			construction_tech
		}

		folder = {
			name = industry_folder
			position = { x = 0 y = 4 }
		}

		ai_will_do = {
			factor = 10


		}
	}


	excavation3 = {

		local_resources_factor = 0.10

		path = {
			research_cost_coeff = 1
		}

		research_cost = 2
		start_year = 1939

		categories = {
			industry
			construction_tech
			excavation_tech
		}

		folder = {
			name = industry_folder
			position = { x = 2 y = 4 }
		}

		ai_will_do = {
			factor = 1
		}
	}

	construction4 = {

		production_speed_buildings_factor = 0.10
		industry_repair_factor = 0.10

		path = {
			leads_to_tech = construction5
			research_cost_coeff = 1
		}
		path = {
			leads_to_tech = excavation4
			research_cost_coeff = 1
		}

		research_cost = 2
		start_year = 1941

		categories = {
			industry
			construction_tech
		}

		folder = {
			name = industry_folder
			position = { x = 0 y = 6 }
		}

		ai_will_do = {
			factor = 4


		}
	}

	excavation4 = {

		local_resources_factor = 0.10

		path = {
			research_cost_coeff = 1
		}

		research_cost = 2
		start_year = 1941

		categories = {
			industry
			construction_tech
			excavation_tech
		}

		folder = {
			name = industry_folder
			position = { x = 2 y = 6 }
		}

		ai_will_do = {
			factor = 1
		}
	}

	construction5 = {

		production_speed_buildings_factor = 0.10
		industry_repair_factor = 0.10

		path = {
			leads_to_tech = excavation5
			research_cost_coeff = 1
		}
		path = {
			leads_to_tech = construction_a
			research_cost_coeff = 1
		}


		research_cost = 2
		start_year = 1943

		categories = {
			industry
			construction_tech
		}

		folder = {
			name = industry_folder
			position = { x = 0 y = 8 }
		}

		ai_will_do = {
			factor = 4


		}
	}


	excavation5 = {

		local_resources_factor = 0.10

		path = {
			research_cost_coeff = 1
		}

		research_cost = 2
		start_year = 1943

		categories = {
			industry
			construction_tech
			excavation_tech
		}

		folder = {
			name = industry_folder
			position = { x = 2 y = 8 }
		}

		ai_will_do = {
			factor = 2
		}
	}

	construction_a = {

		production_speed_buildings_factor = 0.10
		industry_repair_factor = 0.10

		path = {
			leads_to_tech = excavation_a
			research_cost_coeff = 1
		}

		path = {
			leads_to_tech = construction_b
			research_cost_coeff = 1
		}

		research_cost = 2
		start_year = 1945

		categories = {
			industry
			construction_tech
		}

		folder = {
			name = industry_folder
			position = { x = 0 y = 10 }
		}

		ai_will_do = {
			factor = 4
		}
	}

	excavation_a = {

		local_resources_factor = 0.10

		research_cost = 2
		start_year = 1945

		categories = {
			industry
			construction_tech
		}

		folder = {
			name = industry_folder
			position = { x = 2 y = 10 }
		}

		ai_will_do = {
			factor = 1

			modifier = {
				factor = 5.0
				OR = {

					oil > 0
					aluminium > 0
					rubber > 0
					tungsten > 0
					steel > 0
					chromium > 0
				}
			}

			modifier = {
				factor = 1.5
				 OR = {

					oil > 8
					aluminium > 8
					rubber > 8
					tungsten > 8
					steel > 8
					chromium > 8
				}
			}
		}
	}

	construction_b = {

		production_speed_buildings_factor = 0.10
		industry_repair_factor = 0.10

		path = {
			leads_to_tech = excavation_b
			research_cost_coeff = 1
		}

		path = {
			leads_to_tech = construction_c
			research_cost_coeff = 1
		}

		research_cost = 2
		start_year = 1947

		categories = {
			industry
			construction_tech
		}

		folder = {
			name = industry_folder
			position = { x = 0 y = 12 }
		}

		ai_will_do = {
			factor = 4
		}
	}

	excavation_b = {

		local_resources_factor = 0.10

		research_cost = 2
		start_year = 1947

		categories = {
			industry
			construction_tech
		}

		folder = {
			name = industry_folder
			position = { x = 2 y = 12 }
		}

		ai_will_do = {
			factor = 1

			modifier = {
				factor = 5.0
				OR = {

					oil > 0
					aluminium > 0
					rubber > 0
					tungsten > 0
					steel > 0
					chromium > 0
				}
			}

			modifier = {
				factor = 1.5
				 OR = {

					oil > 8
					aluminium > 8
					rubber > 8
					tungsten > 8
					steel > 8
					chromium > 8
				}
			}
		}
	}
}
