﻿division_template = {
	name = "Pekhotna Divizija"			# Infantry Division

	division_names_group = BUL_INF_01

	regiments = {
		infantry = { x = 0 y = 0 }
		infantry = { x = 0 y = 1 }
		infantry = { x = 0 y = 2 }

		infantry = { x = 1 y = 0 }
		infantry = { x = 1 y = 1 }
		infantry = { x = 1 y = 2 }

		infantry = { x = 2 y = 0 }
		infantry = { x = 2 y = 1 }
		infantry = { x = 2 y = 2 }

		artillery_brigade = { x = 3 y = 0 }
		artillery_brigade = { x = 3 y = 1 }
		artillery_brigade = { x = 3 y = 2 }
	}
	support = {
		engineer = { x = 0 y = 0 }
		artillery = { x =0 y = 1 }
       	field_hospital = { x = 0 y = 2 }
		recon = { x = 0 y = 3 }
	}
}

division_template = {
	name = "Konna Divizija" 			# Cavalry Division

	division_names_group = BUL_CAV_01

	regiments = {
		cavalry = { x = 0 y = 0 }
		cavalry = { x = 0 y = 1 }
		cavalry = { x = 1 y = 0 }
		cavalry = { x = 1 y = 1 }
		motorized = { x = 2 y = 0 }
		motorized = { x = 2 y = 1 }
	}
	support = {
		engineer = { x = 0 y = 0 }
		artillery = { x =0 y = 1 }
       	field_hospital = { x = 0 y = 2 }
		recon = { x = 0 y = 3 }
	}
}

units = {
	##### Bulgarski Glavno Komandvane #####
	division = {
		#name = "1-va Konna divizija"
		division_name = {    # New syntax for compatibility with name lists
			is_name_ordered = yes
			name_order = 1
		}
		location = 3257  # Sofia
		division_template = "Konna Divizija"
		start_experience_factor = 0.2
		start_equipment_factor = 0.3

	}
	division = {
		#name = "2-ra Konna divizija"
		division_name = {    # New syntax for compatibility with name lists
			is_name_ordered = yes
			name_order = 2
		}
		location = 3257  # Sofia
		division_template = "Konna Divizija"
		start_experience_factor = 0.2
		start_equipment_factor = 0.3

	}

	# 1-va Armija
	division = {
		#name = "1-va 'Sofiya' Pekhotna Divizija"
		division_name = {    # New syntax for compatibility with name lists
			is_name_ordered = yes
			name_order = 1
		}
		location = 3257  # Sofia
		division_template = "Pekhotna Divizija"
		start_experience_factor = 0.2
		start_equipment_factor = 0.3

	}
	division = {
		#name = "7-ma 'Dupnica' Pekhotna Divizija"
		division_name = {    # New syntax for compatibility with name lists
			is_name_ordered = yes
			name_order = 7
		}
		location = 3257  # Sofia
		division_template = "Pekhotna Divizija"
		start_experience_factor = 0.2
		start_equipment_factor = 0.3

	}

	# 2-ra Armija
	division = {
		#name = "2-ra 'Plovdiv' Pekhotna Divizija"
		division_name = {    # New syntax for compatibility with name lists
			is_name_ordered = yes
			name_order = 2
		}
		location = 3257  # Plovdiv
		division_template = "Pekhotna Divizija"
		start_experience_factor = 0.2
		start_equipment_factor = 0.3

	}
	division = {
		#name = "8-a 'Stara Zagora' Pekhotna Divizija"
		division_name = {    # New syntax for compatibility with name lists
			is_name_ordered = yes
			name_order = 8
		}
		location = 3257  # Plovdiv
		division_template = "Pekhotna Divizija"
		start_experience_factor = 0.2
		start_equipment_factor = 0.3

	}
	division = {
		#name = "10-a 'Kirdzali' Pekhotna Divizija"
		division_name = {    # New syntax for compatibility with name lists
			is_name_ordered = yes
			name_order = 10
		}
		location = 3257  # Plovdiv
		division_template = "Pekhotna Divizija"
		start_experience_factor = 0.2
		start_equipment_factor = 0.3

	}

	# 3-ta Armija
	division = {
		#name = "3-ta 'Sliven' Pekhotna Divizija"
		division_name = {    # New syntax for compatibility with name lists
			is_name_ordered = yes
			name_order = 3
		}
		location = 3257  # Varna
		division_template = "Pekhotna Divizija"
		start_experience_factor = 0.2
		start_equipment_factor = 0.3

	}
	division = {
		#name = "4-ta 'Schumen' Pekhotna Divizija"
		division_name = {    # New syntax for compatibility with name lists
			is_name_ordered = yes
			name_order = 4
		}
		location = 3257  # Varna
		division_template = "Pekhotna Divizija"
		start_experience_factor = 0.2
		start_equipment_factor = 0.3

	}

	# 4-va Armija
	division = {
		#name = "5-ta 'Russe' Pekhotna Divizija"
		division_name = {    # New syntax for compatibility with name lists
			is_name_ordered = yes
			name_order = 5
		}
		location = 3257  # Pleven
		division_template = "Pekhotna Divizija"
		start_experience_factor = 0.2
		start_equipment_factor = 0.3

	}
	division = {
		#name = "6-ta 'Vraca' Pekhotna Divizija"
		division_name = {    # New syntax for compatibility with name lists
			is_name_ordered = yes
			name_order = 6
		}
		location = 3257  # Pleven
		division_template = "Pekhotna Divizija"
		start_experience_factor = 0.2
		start_equipment_factor = 0.3

	}
	division = {
		#name = "9-a 'Pleven' Pekhotna Divizija"
		division_name = {    # New syntax for compatibility with name lists
			is_name_ordered = yes
			name_order = 9
		}
		location = 3257  # Pleven
		division_template = "Pekhotna Divizija"
		start_experience_factor = 0.2
		start_equipment_factor = 0.3

	}
	division = {
		#name = "14-a 'Pleven' Pekhotna Divizija"
		division_name = {    # New syntax for compatibility with name lists
			is_name_ordered = yes
			name_order = 14
		}
		location = 3257  # Pleven
		division_template = "Pekhotna Divizija"
		start_experience_factor = 0.2
		start_equipment_factor = 0.3

	}
}

air_wings = {
	### Vuzdushnite voiski -- Sofia (early purchases of GER Ar 65, He 51 fighters)
	529 = {
		# Vuzdushnite voiski na Negovo Velichestvo
		fighter_equipment_0 =  {
			owner = "BUL"
			creator = "GER"
			amount = 48
		}
	}
}

### Starting Production ###
instant_effect = {
	add_equipment_production = {
		equipment = {
			type = infantry_equipment_1
			creator = "BUL"
		}
		requested_factories = 1
		progress = 0.49
		efficiency = 100
	}
	add_equipment_production = {
		equipment = {
			type = support_equipment_1
			creator = "BUL"
		}
		requested_factories = 1
		progress = 0.73
		efficiency = 100
	}
	add_equipment_production = {
		equipment = {
			type = motorized_equipment_1
			creator = "BUL"
		}
		requested_factories = 1
		progress = 0.4
		efficiency = 100
	}
}
