﻿division_template = {
	name = "Trigonikó Pezikoú" 				# Triangular Infantry Division
	division_names_group = GRE_INF_01
	# Prior to 1940 mobilization = 3rd, 4th, 5th, 9th, 10, 13th;
	# 	6th, 7th, 11th, and 12th had 2 regiments; 14th had 1 regiment
	# Note: sources have all Greek regular infantry as mountain-trained
	regiments = {
		infantry = { x = 0 y = 0 }
		infantry = { x = 0 y = 1 }
		infantry = { x = 0 y = 2 }
		infantry = { x = 1 y = 0 }
		infantry = { x = 1 y = 1 }
		infantry = { x = 1 y = 2 }
		infantry = { x = 2 y = 0 }
		infantry = { x = 2 y = 1 }
		infantry = { x = 2 y = 2 }
	}
	support = {
		engineer = { x = 0 y = 0 }
		artillery = { x = 0 y = 1 }
	}
}
division_template = {
	name = "Tetrágono Pezikoú" 				# Square Infantry Division
	division_names_group = GRE_MNT_01
	# Prior to 1940 mobilization = 1st, 2nd, 8th
	regiments = {
		mountaineers = { x = 0 y = 0 }
		mountaineers = { x = 0 y = 1 }
		mountaineers = { x = 0 y = 2 }
		mountaineers = { x = 1 y = 0 }
		mountaineers = { x = 1 y = 1 }
		mountaineers = { x = 1 y = 2 }
		mountaineers = { x = 2 y = 0 }
		mountaineers = { x = 2 y = 1 }
	}
	support = {
		engineer = { x = 0 y = 0 }
		artillery = { x = 0 y = 1 }
	}
}
division_template = {
	name = "Merarchía Ippikoú" 			# Cavalry Division
	division_names_group = GRE_CAV_01

	regiments = {
		cavalry = { x = 0 y = 0 }
		cavalry = { x = 0 y = 1 }
		cavalry = { x = 0 y = 2 }
		cavalry = { x = 1 y = 0 }
		cavalry = { x = 1 y = 1 }
		cavalry = { x = 1 y = 2 }
	}
	support = {
		recon = { x = 0 y = 0 }      # Motorized recon inf bn
	}
}

units = {
	######## Ellinikó Genikó Epiteleío ########
	division = { # "V Merarchía Pezikoú"
		division_name = {
				is_name_ordered = yes
				name_order = 5
		}
		location = 6960
		division_template = "Trigonikó Pezikoú"
		start_experience_factor = 0.2
		start_equipment_factor = 0.5

	}
	division = { # "VIII Merarchía Pezikoú"
		division_name = {
				is_name_ordered = yes
				name_order = 8
		}
		location = 6960
		division_template = "Tetrágono Pezikoú"
		start_experience_factor = 0.3
		start_equipment_factor = 0.7

	}
	division = {
		name = "Merarchía Ippikoú"
		location = 6960
		division_template = "Merarchía Ippikoú"
		start_experience_factor = 0.2
		start_equipment_factor = 0.5

	}

	# A Sóma Stratoú
	division = { # "II Merarchía Pezikoú"
		division_name = {
				is_name_ordered = yes
				name_order = 2
		}
		location = 6960
		division_template = "Tetrágono Pezikoú"
		start_experience_factor = 0.3
		start_equipment_factor = 0.7

	}
	division = { # "III Merarchía Pezikoú"
		division_name = {
				is_name_ordered = yes
				name_order = 3
		}
		location = 6960
		division_template = "Trigonikó Pezikoú"
		start_experience_factor = 0.2
		start_equipment_factor = 0.5

	}
	division = { # "IV Merarchía Pezikoú"
		division_name = {
				is_name_ordered = yes
				name_order = 4
		}
		location = 6960
		division_template = "Trigonikó Pezikoú"
		start_experience_factor = 0.2
		start_equipment_factor = 0.5

	}

	# B Sóma Stratoú
	division = { # "I Merarchía Pezikoú"
		division_name = {
				is_name_ordered = yes
				name_order = 1
		}
		location = 6960
		division_template = "Tetrágono Pezikoú"
		start_experience_factor = 0.3
		start_equipment_factor = 0.7

	}
	division = { # "IX Merarchía Pezikoú"
		division_name = {
				is_name_ordered = yes
				name_order = 9
		}
		location = 6960
		division_template = "Trigonikó Pezikoú"
		start_experience_factor = 0.2
		start_equipment_factor = 0.5

	}

	# C Sóma Stratoú
	division = { # "VI Merarchía Pezikoú"
		division_name = {
				is_name_ordered = yes
				name_order = 6
		}
		location = 6960
		division_template = "Trigonikó Pezikoú"
		start_experience_factor = 0.2
		start_equipment_factor = 0.3

	}
	division = { # "X Merarchía Pezikoú"
		division_name = {
				is_name_ordered = yes
				name_order = 10
		}
		location = 6960
		division_template = "Trigonikó Pezikoú"
		start_experience_factor = 0.2
		start_equipment_factor = 0.5

	}
	division = { # "XI Merarchía Pezikoú"
		division_name = {
				is_name_ordered = yes
				name_order = 11
		}
		location = 6960
		division_template = "Trigonikó Pezikoú"
		start_experience_factor = 0.2
		start_equipment_factor = 0.3

	}

	# D Sóma Stratoú
	division = { # "VII Merarchía Pezikoú"
		division_name = {
				is_name_ordered = yes
				name_order = 7
		}
		location = 6960
		division_template = "Trigonikó Pezikoú"
		start_experience_factor = 0.2
		start_equipment_factor = 0.3

	}

	# E Sóma Stratoú
	division = { # "XII Merarchía Pezikoú"
		division_name = {
				is_name_ordered = yes
				name_order = 12
		}
		location = 6960
		division_template = "Trigonikó Pezikoú"
		start_experience_factor = 0.2
		start_equipment_factor = 0.3

	}
}

##### Air units -- Greece did not start to modernize air force until 1937 -- but they should still have their interwar air force available #####
air_wings = {
	##### Elliniki Polemiki Aeroporia #####
	647 = {
		# Machitís Moíras
		fighter_equipment_0 = {
			owner = "GRE"
			amount = 26
			create_if_missing = yes
		}
		# Moíra vomvistón
		tac_bomber_equipment_0 = {
			owner = "GRE"
			amount = 71
			create_if_missing = yes
		}
	}
}


### Starting Production ###
instant_effect = {
	add_equipment_production = {
		equipment = {
			type = infantry_equipment_0
			creator = "GRE"
		}
		requested_factories = 1
		progress = 0.5
		efficiency = 100
	}
	add_equipment_production = {
		equipment = {
			type = artillery_equipment_1
			creator = "GRE"
		}
		requested_factories = 1
		progress = 0.5
		efficiency = 100
	}
}
