﻿##### Division Templates #####
division_template = {
	name = "Strelkovaya Diviziya"			# Rifle Division
	division_names_group = SOV_INF_01

	regiments = {
		infantry = { x = 0 y = 0 }
		infantry = { x = 0 y = 1 }
		infantry = { x = 0 y = 2 }
		infantry = { x = 1 y = 0 }
		infantry = { x = 1 y = 1 }
		infantry = { x = 1 y = 2 }
		infantry = { x = 2 y = 0 }
		infantry = { x = 2 y = 1 }
		infantry = { x = 2 y = 2 }

		artillery_brigade = { x = 3 y = 0 }
		artillery_brigade = { x = 3 y = 1 }
		artillery_brigade = { x = 3 y = 2 }
	}
	support = {
		mot_recon = { x = 0 y = 0 }
		artillery = { x = 0 y = 1 }
		anti_tank = { x = 0 y = 2 }
		anti_air = { x = 0 y = 3 }
		engineer = { x = 1 y = 0 }
       	field_hospital = { x = 1 y = 1 }
		signal_company = { x = 1 y = 2 }
	}
}

division_template = {
	name = "Gornostrelkovaya Diviziya"		# Mountain Division
	division_names_group = SOV_MNT_01

	regiments = {
		mountaineers = { x = 0 y = 0 }
		mountaineers = { x = 0 y = 1 }
		mountaineers = { x = 0 y = 2 }

		mountaineers = { x = 1 y = 0 }
		mountaineers = { x = 1 y = 1 }
		mountaineers = { x = 1 y = 2 }

		mountaineers = { x = 2 y = 0 }
		mountaineers = { x = 2 y = 1 }

		artillery_brigade = { x = 3 y = 0 }
		artillery_brigade = { x = 3 y = 1 }
		artillery_brigade = { x = 3 y = 2 }
	}
	support = {
		engineer = { x = 0 y = 0 } 		# Engineer bn
		artillery = { x = 0 y = 1 } 	# Heavy Arty Regiment had 2x 122mm bn
		signal_company = { x = 0 y = 2 }
		anti_air = { x = 0 y = 3 }
       	field_hospital = { x = 1 y = 0 }
	}
}

division_template = {
	name = "Motostrelkovaya Brigada"		# Motor Rifle Division
	division_names_group = SOV_MOT_01
	regiments = {
		motorized = { x = 0 y = 0 }
		motorized = { x = 0 y = 1 }
		motorized = { x = 0 y = 2 }
	}
}

division_template = {
	name = "Motostrelkovaya Diviziya"		# Motor Rifle Division
	division_names_group = SOV_MOT_01
	regiments = {
		motorized = { x = 0 y = 0 }
		motorized = { x = 0 y = 1 }
		motorized = { x = 0 y = 2 }

		motorized = { x = 1 y = 0 }
		motorized = { x = 1 y = 1 }
		motorized = { x = 1 y = 2 }

		motorized = { x = 2 y = 0 }
		motorized = { x = 2 y = 1 }
		motorized = { x = 2 y = 2 }

		mot_artillery_brigade = { x = 3 y = 0 }
		mot_artillery_brigade = { x = 3 y = 1 }
	}
	support = {
		mot_recon = { x = 0 y = 0 }
		anti_tank = { x = 0 y = 1 }
		anti_air = { x = 0 y = 2 }
		engineer = { x = 0 y = 3 }
		signal_company = { x = 1 y = 0 }
       	field_hospital = { x = 1 y = 1 }
	}
}

division_template = {
	name = "Kavaleriyskaya Diviziya" 	# Cavalry Division
	division_names_group = SOV_CAV_01

	regiments = {
		cavalry = { x = 0 y = 0 }
		cavalry = { x = 0 y = 1 }
		cavalry = { x = 0 y = 2 }

		cavalry = { x = 1 y = 0 }
		cavalry = { x = 1 y = 1 }
		cavalry = { x = 1 y = 2 }

		cavalry = { x = 2 y = 0 }
		cavalry = { x = 2 y = 1 }
		mot_artillery_brigade = { x = 2 y = 2 }

		light_armor = { x = 3 y = 0 }
	}
	support = {
		mot_recon = { x = 0 y = 0 }
		engineer = { x = 0 y = 1 }
		signal_company = { x = 0 y = 2 }
		anti_air = { x = 0 y = 3 }
		artillery = { x = 1 y = 0 }
	}
}

division_template = {
	name = "NKVD Pogranichnaya Diviziya"			# NKVD Border Guard Division - Garrison units (older experience, older equipment)
	division_names_group = SOV_GAR_01

	regiments = {
		infantry = { x = 0 y = 0 }
		infantry = { x = 0 y = 1 }
		infantry = { x = 0 y = 2 }

		infantry = { x = 1 y = 0 }
		infantry = { x = 1 y = 1 }
		infantry = { x = 1 y = 2 }

		motorized = { x = 2 y = 0 }
	}
	support = 	{
		military_police = { x = 0 y = 0 }
	}
	priority = 0
}
division_template = {
	name = "Mekhanizirovaniy Diviziya" 				# Represents regular mechanized corps (4 existed in 1935-38);
	division_names_group = SOV_MEC_01
												# Also represents groups of independent tank, mech brigades of the time, though groups are best represented by tank bge
													# (2x M/L tank + 1x mot), and 2x mech bge (2x L tank + 1x mot)
	regiments = {
		light_armor = { x = 0 y = 0 }
		light_armor = { x = 0 y = 1 }
		light_armor = { x = 1 y = 0 }
		light_armor = { x = 1 y = 1 }
		motorized = { x = 2 y = 0 }
		motorized = { x = 2 y = 1 }
		motorized = { x = 2 y = 2 }
		motorized = { x = 3 y = 0 }
		motorized = { x = 3 y = 1 }
		motorized = { x = 3 y = 2 }
	}
	support = {
        light_tank_recon = { x = 0 y = 0 }
		engineer = { x = 0 y = 1 }
		signal_company = { x = 0 y = 2 }
		anti_air = { x = 0 y = 3 }
		artillery = { x = 1 y = 0 }
		anti_tank = { x = 1 y = 1 }
       	field_hospital = { x = 1 y = 2 }
	}
}
division_template = {
	name = "Tankovaya Diviziya" 				# Represents regular mechanized corps (4 existed in 1935-38);
	division_names_group = SOV_ARM_01
												# Also represents groups of independent tank, mech brigades of the time, though groups are best represented by tank bge
													# (2x M/L tank + 1x mot), and 2x mech bge (2x L tank + 1x mot)
	regiments = {
		light_armor = { x = 0 y = 0 }
		light_armor = { x = 0 y = 1 }
		light_armor = { x = 0 y = 2 }
		medium_armor = { x = 1 y = 0 }
		medium_armor = { x = 1 y = 1 }
		medium_armor = { x = 1 y = 2 }
		motorized = { x = 2 y = 0 }
		motorized = { x = 2 y = 1 }
		motorized = { x = 2 y = 2 }
		mot_artillery_brigade = { x = 3 y = 0 }
		mot_artillery_brigade = { x = 3 y = 1 }
		mot_artillery_brigade = { x = 3 y = 2 }
	}
	support = {
        light_tank_recon = { x = 0 y = 0 }
		engineer = { x = 0 y = 1 }
		signal_company = { x = 0 y = 2 }
		anti_air = { x = 0 y = 3 }
		maintenance_company = { x = 1 y = 0 }
		light_flame_tank = { x = 1 y = 1 }
		field_hospital = { x = 1 y = 2 }
	}
}
division_template = {
	name = "Vozdushno-Desantnaya Brigada"			# Airborne Brigade
	division_names_group = SOV_PAR_01

	regiments = {
		paratrooper = { x = 0 y = 0 }
		paratrooper = { x = 0 y = 1 }
		paratrooper = { x = 1 y = 0 }
		paratrooper = { x = 1 y = 1 }
	}
}

#Cossack Cavalry Template from RESTORE COSSACK UNITS focus
division_template = {
	name = "Kazachya Kavaleryskaya Diviziya"
	division_names_group = SOV_CAV_02
	template_counter = 05

	regiments = {
		cavalry = { x = 0 y = 0 }
		cavalry = { x = 0 y = 1 }
		cavalry = { x = 1 y = 0 }
		cavalry = { x = 1 y = 1 }
		mot_artillery_brigade = { x = 2 y = 0 }
		light_armor = { x = 3 y = 0 }
	}
	support = {
		engineer = { x = 0 y = 0 }
		artillery = { x = 0 y = 1 }
		recon = { x = 0 y = 2 }
	}
}

### Note: OOB abstracts away the following:
#	Marine Brigade (3x marine bn), 2 Brigades: Leningrad, Sevastopol

##### OOB #####
units = {
    # Leningrad Military District #
        # Army 7 #
			division= {# Mountain Division
				division_name = {
					is_name_ordered = yes
					name_order = 54
				}
				location = 5013
				division_template = "Gornostrelkovaya Diviziya"
				start_experience_factor = 0.2
				start_equipment_factor = 0.9
			}
			division= { # Rifle Division
				division_name = {
					is_name_ordered = yes
					name_order = 168
				}
				location = 5013
				division_template = "Strelkovaya Diviziya"
				start_experience_factor = 0.2
				start_equipment_factor = 0.9
			}
        #
        # Army 14 #
            # Corps 42 #
				division= { # Rifle Division
					division_name = {
						is_name_ordered = yes
						name_order = 104
					}
					location = 5016
					division_template = "Strelkovaya Diviziya"
					start_experience_factor = 0.2
					start_equipment_factor = 0.9
				}
				division= { # Rifle Division
					division_name = {
						is_name_ordered = yes
						name_order = 122
					}
					location = 5016
					division_template = "Strelkovaya Diviziya"
					start_experience_factor = 0.2
					start_equipment_factor = 0.9
				}
			#
			division= { # Rifle Division
				division_name = {
					is_name_ordered = yes
					name_order = 14
				}
				location = 5016
				division_template = "Strelkovaya Diviziya"
				start_experience_factor = 0.2
				start_equipment_factor = 0.9
			}
			division= { # Rifle Division
				division_name = {
					is_name_ordered = yes
					name_order = 52
				}
				location = 5016
				division_template = "Strelkovaya Diviziya"
				start_experience_factor = 0.2
				start_equipment_factor = 0.9
			}
			division= {# Medium/heavy armour
				division_name = {
					is_name_ordered = yes
					name_order = 1
				}
				location = 5016
				division_template = "Tankovaya Diviziya"
				start_experience_factor = 0.2
				start_equipment_factor = 0.7
			}
        #
        # Army 23 #
            # Corps 19 #
				division= { # Rifle Division
					division_name = {
						is_name_ordered = yes
						name_order = 115
					}
					location = 838
					division_template = "Strelkovaya Diviziya"
					start_experience_factor = 0.2
					start_equipment_factor = 0.9
				}
            #
            # Corps 50 #
				division= { # Rifle Division
					division_name = {
						is_name_ordered = yes
						name_order = 43
					}
					location = 838
					division_template = "Strelkovaya Diviziya"
					start_experience_factor = 0.2
					start_equipment_factor = 0.9
				}
				division= { # Rifle Division
					division_name = {
						is_name_ordered = yes
						name_order = 70
					}
					location = 838
					division_template = "Strelkovaya Diviziya"
					start_experience_factor = 0.2
					start_equipment_factor = 0.9
				}
				division= { # Rifle Division
					division_name = {
						is_name_ordered = yes
						name_order = 123
					}
					location = 838
					division_template = "Strelkovaya Diviziya"
					start_experience_factor = 0.2
					start_equipment_factor = 0.9
				}
            #
            # Mechanized Corps 10 #
				division= {# Light armour
					division_name = {
						is_name_ordered = yes
						name_order = 198
					}
					location = 838
					division_template = "Mekhanizirovaniy Diviziya"
					start_experience_factor = 0.2
					start_equipment_factor = 0.9
				}
				division= {# Motorised Brigade
					division_name = {
						is_name_ordered = yes
						name_order = 7
					}
					location = 838
					division_template = "Motostrelkovaya Brigada"
					start_experience_factor = 0.2
					start_equipment_factor = 0.9
				}
            #
        #
        # Mechanized Corps 1 #
			division= {# Medium/heavy armour
				division_name = {
					is_name_ordered = yes
					name_order = 3
				}
				location = 5013
				division_template = "Tankovaya Diviziya"
				start_experience_factor = 0.2
				start_equipment_factor = 0.7
			}
			division= {# Light armour
				division_name = {
					is_name_ordered = yes
					name_order = 163
				}
				location = 5013
				division_template = "Mekhanizirovaniy Diviziya"
				start_experience_factor = 0.2
				start_equipment_factor = 0.9
			}
			division= {# Motorised Brigade
				division_name = {
					is_name_ordered = yes
					name_order = 5
				}
				location = 5013
				division_template = "Motostrelkovaya Brigada"
				start_experience_factor = 0.2
				start_equipment_factor = 0.9
			}
        #
    #
    # Baltic Military District #
        # Army 8 #
            # Corps 10 #
				division= { # Rifle Division
					division_name = {
						is_name_ordered = yes
						name_order = 10
					}
					location = 1017
					division_template = "Strelkovaya Diviziya"
					start_experience_factor = 0.2
					start_equipment_factor = 0.9
				}
				division= { # Rifle Division
					division_name = {
						is_name_ordered = yes
						name_order = 48
					}
					location = 917
					division_template = "Strelkovaya Diviziya"
					start_experience_factor = 0.2
					start_equipment_factor = 0.9
				}
				division= { # Rifle Division
					division_name = {
						is_name_ordered = yes
						name_order = 90
					}
					location = 1114
					division_template = "Strelkovaya Diviziya"
					start_experience_factor = 0.2
					start_equipment_factor = 0.9
				}
            #
            # Corps 11 #
				division= { # Rifle Division
					division_name = {
						is_name_ordered = yes
						name_order = 11
					}
					location = 3900
					division_template = "Strelkovaya Diviziya"
					start_experience_factor = 0.2
					start_equipment_factor = 0.9
				}

            #
            # Mechanized Corps 12 #
				division= {# Light armour
					division_name = {
						is_name_ordered = yes
						name_order = 202
					}
					location = 245
					division_template = "Mekhanizirovaniy Diviziya"
					start_experience_factor = 0.2
					start_equipment_factor = 0.9
				}
				division= {# Motorised Brigade
					division_name = {
						is_name_ordered = yes
						name_order = 10
					}
					location = 10637
					division_template = "Motostrelkovaya Brigada"
					start_experience_factor = 0.2
					start_equipment_factor = 0.9
				}
            #
        #
        # Army 11 #
            # Corps 16 #
				division= { # Rifle Division
					division_name = {
						is_name_ordered = yes
						name_order = 5
					}
					location = 777
					division_template = "Strelkovaya Diviziya"
					start_experience_factor = 0.2
					start_equipment_factor = 0.9
				}
				division= { # Rifle Division
					division_name = {
						is_name_ordered = yes
						name_order = 33
					}
					location = 10601
					division_template = "Strelkovaya Diviziya"
					start_experience_factor = 0.2
					start_equipment_factor = 0.9
				}
            #
            # Corps 29 #
            #
            # Mechanized Corps 3 #
				division= {# Light armour
					division_name = {
						is_name_ordered = yes
						name_order = 84
					}
					location = 10526
					division_template = "Mekhanizirovaniy Diviziya"
					start_experience_factor = 0.2
					start_equipment_factor = 0.9
				}
				division= {# Motorised Brigade
					division_name = {
						is_name_ordered = yes
						name_order = 15
					}
					location = 5252
					division_template = "Motostrelkovaya Brigada"
					start_experience_factor = 0.2
					start_equipment_factor = 0.9
				}
            #
			division= { # Rifle Division
				division_name = {
					is_name_ordered = yes
					name_order = 23
				}
				location = 636
				division_template = "Strelkovaya Diviziya"
				start_experience_factor = 0.2
				start_equipment_factor = 0.9
			}
        #
        # Army 27 #
            # Corps 22 #
            #
            # Corps 24 #
            #
			division= { # Rifle Division
				division_name = {
					is_name_ordered = yes
					name_order = 3
				}
				location = 415
				division_template = "Strelkovaya Diviziya"
				start_experience_factor = 0.2
				start_equipment_factor = 0.9
			}
			division= { # Rifle Division
				division_name = {
					is_name_ordered = yes
					name_order = 16
				}
				location = 707
				division_template = "Strelkovaya Diviziya"
				start_experience_factor = 0.2
				start_equipment_factor = 0.9
			}
			division= { # Rifle Division
				division_name = {
					is_name_ordered = yes
					name_order = 67
				}
				location = 5182
				division_template = "Strelkovaya Diviziya"
				start_experience_factor = 0.2
				start_equipment_factor = 0.9
			}
        #
        # Airborne Corps 5 #
        #
    #
    # Western Military District #
        # Army 3 #
            # Corps 4 #
				division= { # Rifle Division
					division_name = {
						is_name_ordered = yes
						name_order = 27
					}
					location = 2622
					division_template = "Strelkovaya Diviziya"
					start_experience_factor = 0.2
					start_equipment_factor = 0.9
				}
				division= { # Rifle Division
					division_name = {
						is_name_ordered = yes
						name_order = 56
					}
					location = 2622
					division_template = "Strelkovaya Diviziya"
					start_experience_factor = 0.2
					start_equipment_factor = 0.9
				}
				division= { # Rifle Division
					division_name = {
						is_name_ordered = yes
						name_order = 85
					}
					location = 2622
					division_template = "Strelkovaya Diviziya"
					start_experience_factor = 0.2
					start_equipment_factor = 0.9
				}
            #
            # Corps 21 #
				division= { # Rifle Division
					division_name = {
						is_name_ordered = yes
						name_order = 17
					}
					location = 2622
					division_template = "Strelkovaya Diviziya"
					start_experience_factor = 0.2
					start_equipment_factor = 0.9
				}
				division= { # Rifle Division
					division_name = {
						is_name_ordered = yes
						name_order = 24
					}
					location = 2622
					division_template = "Strelkovaya Diviziya"
					start_experience_factor = 0.2
					start_equipment_factor = 0.9
				}
				division= { # Rifle Division
					division_name = {
						is_name_ordered = yes
						name_order = 37
					}
					location = 2622
					division_template = "Strelkovaya Diviziya"
					start_experience_factor = 0.2
					start_equipment_factor = 0.9
				}
				division= { # Rifle Division
					division_name = {
						is_name_ordered = yes
						name_order = 50
					}
					location = 2622
					division_template = "Strelkovaya Diviziya"
					start_experience_factor = 0.2
					start_equipment_factor = 0.9
				}
            #
            # Mechanized Corps 11 #
				division= {# Light armour
					division_name = {
						is_name_ordered = yes
						name_order = 204
					}
					location = 2622
					division_template = "Mekhanizirovaniy Diviziya"
					start_experience_factor = 0.2
					start_equipment_factor = 0.9
				}
				division= {# Motorised Brigade
					division_name = {
						is_name_ordered = yes
						name_order = 16
					}
					location = 2622
					division_template = "Motostrelkovaya Brigada"
					start_experience_factor = 0.2
					start_equipment_factor = 0.9
				}
            #
        #
        # Army 4 #
            # Corps 28 #
				division= { # Rifle Division
					division_name = {
						is_name_ordered = yes
						name_order = 6
					}
					location = 626
					division_template = "Strelkovaya Diviziya"
					start_experience_factor = 0.2
					start_equipment_factor = 0.9
				}
				division= { # Rifle Division
					division_name = {
						is_name_ordered = yes
						name_order = 42
					}
					location = 626
					division_template = "Strelkovaya Diviziya"
					start_experience_factor = 0.2
					start_equipment_factor = 0.9
				}
            #
            # Mechanized Corps 14 #
				division= {# Light armour
					division_name = {
						is_name_ordered = yes
						name_order = 205
					}
					location = 626
					division_template = "Mekhanizirovaniy Diviziya"
					start_experience_factor = 0.2
					start_equipment_factor = 0.9
				}
				division= {# Motorised Brigade
					division_name = {
						is_name_ordered = yes
						name_order = 20
					}
					location = 626
					division_template = "Motostrelkovaya Brigada"
					start_experience_factor = 0.2
					start_equipment_factor = 0.9
				}
            #
			division= { # Rifle Division
				division_name = {
					is_name_ordered = yes
					name_order = 49
				}
				location = 626
				division_template = "Strelkovaya Diviziya"
				start_experience_factor = 0.2
				start_equipment_factor = 0.9
			}

			division= {# Mountain Rifle Division
				division_name = {
					is_name_ordered = yes
					name_order = 75
				}
				location = 626
				division_template = "Gornostrelkovaya Diviziya"
				start_experience_factor = 0.2
				start_equipment_factor = 0.9
			}
        #
        # Army 10 #
            # Corps 1 #
				division= { # Rifle Division
					division_name = {
						is_name_ordered = yes
						name_order = 2
					}
					location = 5300
					division_template = "Strelkovaya Diviziya"
					start_experience_factor = 0.2
					start_equipment_factor = 0.9
				}
				division= { # Rifle Division
					division_name = {
						is_name_ordered = yes
						name_order = 8
					}
					location = 5300
					division_template = "Strelkovaya Diviziya"
					start_experience_factor = 0.2
					start_equipment_factor = 0.9
				}
            #
            # Corps 5 #
				division= { # Rifle Division
					division_name = {
						is_name_ordered = yes
						name_order = 13
					}
					location = 5300
					division_template = "Strelkovaya Diviziya"
					start_experience_factor = 0.2
					start_equipment_factor = 0.9
				}
				division= { # Rifle Division
					division_name = {
						is_name_ordered = yes
						name_order = 86
					}
					location = 5300
					division_template = "Strelkovaya Diviziya"
					start_experience_factor = 0.2
					start_equipment_factor = 0.9
				}
				division= { # Rifle Division
					division_name = {
						is_name_ordered = yes
						name_order = 113
					}
					location = 5300
					division_template = "Strelkovaya Diviziya"
					start_experience_factor = 0.2
					start_equipment_factor = 0.9
				}
            #
            # Cavalry Corps 6 #
				division= { # Cavalry Division
					division_name = {
						is_name_ordered = yes
						name_order = 6
					}
					location = 5300
					division_template = "Kavaleriyskaya Diviziya"
					start_experience_factor = 0.2
					start_equipment_factor = 0.8
				}
				division= { # Cavalry Division
					division_name = {
						is_name_ordered = yes
						name_order = 36
					}
					location = 5300
					division_template = "Kavaleriyskaya Diviziya"
					start_experience_factor = 0.2
					start_equipment_factor = 0.8
				}
            #
            # Mechanized Corps 6 #
				division= {# Light armour
					division_name = {
						is_name_ordered = yes
						name_order = 29
					}
					location = 5300
					division_template = "Mekhanizirovaniy Diviziya"
					start_experience_factor = 0.2
					start_equipment_factor = 0.9
				}
				division= {# Motorised Brigade
					division_name = {
						is_name_ordered = yes
						name_order = 4
					}
					location = 5300
					division_template = "Motostrelkovaya Brigada"
					start_experience_factor = 0.2
					start_equipment_factor = 0.9
				}
            #
            # Mechanized Corps 13 #
				division= {# Light armour
					division_name = {
						is_name_ordered = yes
						name_order = 208
					}
					location = 5300
					division_template = "Mekhanizirovaniy Diviziya"
					start_experience_factor = 0.2
					start_equipment_factor = 0.9
				}
				division= {# Motorised Brigade
					division_name = {
						is_name_ordered = yes
						name_order = 18
					}
					location = 5300
					division_template = "Motostrelkovaya Brigada"
					start_experience_factor = 0.2
					start_equipment_factor = 0.9
				}
            #
			division= { # Rifle Division
				division_name = {
					is_name_ordered = yes
					name_order = 155
				}
				location = 5300
				division_template = "Strelkovaya Diviziya"
				start_experience_factor = 0.2
				start_equipment_factor = 0.9
			}
        #
        # Army 13 #
            # Corps 2 #
				division= { # Rifle Division
					division_name = {
						is_name_ordered = yes
						name_order = 100
					}
					location = 10512
					division_template = "Strelkovaya Diviziya"
					start_experience_factor = 0.2
					start_equipment_factor = 0.9
				}
            #
            # Corps 44 #
				division= { # Rifle Division
					division_name = {
						is_name_ordered = yes
						name_order = 64
					}
					location = 10512
					division_template = "Strelkovaya Diviziya"
					start_experience_factor = 0.2
					start_equipment_factor = 0.9
				}
            #
		#
		# Corps 47 #
			division= { # Rifle Division
				division_name = {
					is_name_ordered = yes
					name_order = 55
				}
				location = 10512
				division_template = "Strelkovaya Diviziya"
				start_experience_factor = 0.2
				start_equipment_factor = 0.9
			}
			division= { # Rifle Division
				division_name = {
					is_name_ordered = yes
					name_order = 121
				}
				location = 10512
				division_template = "Strelkovaya Diviziya"
				start_experience_factor = 0.2
				start_equipment_factor = 0.9
			}
        #
        # Airborne Corps 4 #
			division= {# Airborne Brigade
				division_name = {
					is_name_ordered = yes
					name_order = 214
				}
				location = 10512
				division_template = "Vozdushno-Desantnaya Brigada"
				start_experience_factor = 0.2
				start_equipment_factor = 1
			}
        #
        # Mechanized Corps 17 #
			division= {# Light armour
				division_name = {
					is_name_ordered = yes
					name_order = 209
				}
				location = 10512
				division_template = "Mekhanizirovaniy Diviziya"
				start_experience_factor = 0.2
				start_equipment_factor = 0.9
			}
			division= {# Motorised Brigade
				division_name = {
					is_name_ordered = yes
					name_order = 22
				}
				location = 10512
				division_template = "Motostrelkovaya Brigada"
				start_experience_factor = 0.2
				start_equipment_factor = 0.9
			}
        #
        # Mechanized Corps 20 #
			division= {# Light armour
				division_name = {
					is_name_ordered = yes
					name_order = 210
				}
				location = 10512
				division_template = "Mekhanizirovaniy Diviziya"
				start_experience_factor = 0.2
				start_equipment_factor = 0.9
			}
			division= {# Motorised Brigade
				division_name = {
					is_name_ordered = yes
					name_order = 24
				}
				location = 10512
				division_template = "Motostrelkovaya Brigada"
				start_experience_factor = 0.2
				start_equipment_factor = 0.9
			}
        #
    #
    # Kiev Military District #
        # Army 5 #
            # Corps 15 #
				division= { # Rifle Division
					division_name = {
						is_name_ordered = yes
						name_order = 45
					}
					location = 10290
					division_template = "Strelkovaya Diviziya"
					start_experience_factor = 0.2
					start_equipment_factor = 0.9
				}
				division= { # Rifle Division
					division_name = {
						is_name_ordered = yes
						name_order = 62
					}
					location = 10290
					division_template = "Strelkovaya Diviziya"
					start_experience_factor = 0.2
					start_equipment_factor = 0.9
				}
            #
            # Corps 27 #
				division= { # Rifle Division
					division_name = {
						is_name_ordered = yes
						name_order = 87
					}
					location = 10290
					division_template = "Strelkovaya Diviziya"
					start_experience_factor = 0.2
					start_equipment_factor = 0.9
				}
				division= { # Rifle Division
					division_name = {
						is_name_ordered = yes
						name_order = 124
					}
					location = 10290
					division_template = "Strelkovaya Diviziya"
					start_experience_factor = 0.2
					start_equipment_factor = 0.9
				}
				division= { # Rifle Division
					division_name = {
						is_name_ordered = yes
						name_order = 135
					}
					location = 10290
					division_template = "Strelkovaya Diviziya"
					start_experience_factor = 0.2
					start_equipment_factor = 0.9
				}
            #
            # Mechanized Corps 22 #
				division= {# Light armour
					division_name = {
						is_name_ordered = yes
						name_order = 215
					}
					location = 10290
					division_template = "Mekhanizirovaniy Diviziya"
					start_experience_factor = 0.2
					start_equipment_factor = 0.9
				}
				division= {# Motorised Brigade
					division_name = {
						is_name_ordered = yes
						name_order = 23
					}
					location = 10290
					division_template = "Motostrelkovaya Brigada"
					start_experience_factor = 0.2
					start_equipment_factor = 0.9
				}
            #
        #
        # Army 6 #
            # Corps 6 #
				division= { # Rifle Division
					division_name = {
						is_name_ordered = yes
						name_order = 41
					}
					location = 1222
					division_template = "Strelkovaya Diviziya"
					start_experience_factor = 0.2
					start_equipment_factor = 0.9
				}
				division= { # Rifle Division
					division_name = {
						is_name_ordered = yes
						name_order = 97
					}
					location = 1222
					division_template = "Strelkovaya Diviziya"
					start_experience_factor = 0.2
					start_equipment_factor = 0.9
				}
            #
            # Corps 37 #
				division= { # Rifle Division
					division_name = {
						is_name_ordered = yes
						name_order = 80
					}
					location = 1222
					division_template = "Strelkovaya Diviziya"
					start_experience_factor = 0.2
					start_equipment_factor = 0.9
				}
				division= { # Rifle Division
					division_name = {
						is_name_ordered = yes
						name_order = 139
					}
					location = 1222
					division_template = "Strelkovaya Diviziya"
					start_experience_factor = 0.2
					start_equipment_factor = 0.9
				}
				division= { # Rifle Division
					division_name = {
						is_name_ordered = yes
						name_order = 141
					}
					location = 1222
					division_template = "Strelkovaya Diviziya"
					start_experience_factor = 0.2
					start_equipment_factor = 0.9
				}
            #
            # Cavalry Corps 5 #
				division= { # Cavalry Division
					division_name = {
						is_name_ordered = yes
						name_order = 3
					}
					location = 1222
					division_template = "Kavaleriyskaya Diviziya"
					start_experience_factor = 0.2
					start_equipment_factor = 0.8
				}
				division= { # Cavalry Division
					division_name = {
						is_name_ordered = yes
						name_order = 14
					}
					location = 1222
					division_template = "Kavaleriyskaya Diviziya"
					start_experience_factor = 0.2
					start_equipment_factor = 0.8
				}
            #
            # Mechanized Corps 4 #
				division= {# Light armour
					division_name = {
						is_name_ordered = yes
						name_order = 81
					}
					location = 1222
					division_template = "Mekhanizirovaniy Diviziya"
					start_experience_factor = 0.2
					start_equipment_factor = 0.9
				}
				division= {# Motorised Brigade
					division_name = {
						is_name_ordered = yes
						name_order = 3
					}
					location = 1222
					division_template = "Motostrelkovaya Brigada"
					start_experience_factor = 0.2
					start_equipment_factor = 0.9
				}
            #
        #
        # Army 12 #
            # Corps 13 #
				division= {# Mountain Rifle Division
					division_name = {
						is_name_ordered = yes
						name_order = 58
					}
					location = 10113
					division_template = "Strelkovaya Diviziya"
					start_experience_factor = 0.2
					start_equipment_factor = 0.9
				}
            #
            # Corps 17 #
				division= {# Mountain Rifle Division
					division_name = {
						is_name_ordered = yes
						name_order = 60
					}
					location = 10113
					division_template = "Strelkovaya Diviziya"
					start_experience_factor = 0.2
					start_equipment_factor = 0.9
				}
				division= {# Mountain Rifle Division
					division_name = {
						is_name_ordered = yes
						name_order = 69
					}
					location = 10113
					division_template = "Strelkovaya Diviziya"
					start_experience_factor = 0.2
					start_equipment_factor = 0.9
				}
				division= { # Rifle Division
					division_name = {
						is_name_ordered = yes
						name_order = 164
					}
					location = 10113
					division_template = "Strelkovaya Diviziya"
					start_experience_factor = 0.2
					start_equipment_factor = 0.9
				}
            #
            # Mechanized Corps 16 #
				division= {# Light armour
					division_name = {
						is_name_ordered = yes
						name_order = 240
					}
					location = 10113
					division_template = "Mekhanizirovaniy Diviziya"
					start_experience_factor = 0.2
					start_equipment_factor = 0.9
				}
				division= {# Motorised Brigade
					division_name = {
						is_name_ordered = yes
						name_order = 19
					}
					location = 10113
					division_template = "Motostrelkovaya Brigada"
					start_experience_factor = 0.2
					start_equipment_factor = 0.9
				}
            #
        #
        # Army 26 #
            # Corps 8 #
				division= { # Rifle Division
					division_name = {
						is_name_ordered = yes
						name_order = 99
					}
					location = 10289
					division_template = "Strelkovaya Diviziya"
					start_experience_factor = 0.2
					start_equipment_factor = 0.9
				}
            #
            # Mechanized Corps 8 #
				division= {# Light armour
					division_name = {
						is_name_ordered = yes
						name_order = 7
					}
					location = 10289
					division_template = "Mekhanizirovaniy Diviziya"
					start_experience_factor = 0.2
					start_equipment_factor = 0.9
				}
				division= {# Motorised Brigade
					division_name = {
						is_name_ordered = yes
						name_order = 2
					}
					location = 10289
					division_template = "Motostrelkovaya Brigada"
					start_experience_factor = 0.2
					start_equipment_factor = 0.9
				}
            #
        #
        # Corps 31 #
        #
        # Corps 36 #
			division= { # Rifle Division
				division_name = {
					is_name_ordered = yes
					name_order = 140
				}
				location = 10319
				division_template = "Strelkovaya Diviziya"
				start_experience_factor = 0.2
				start_equipment_factor = 0.9
			}
			division= { # Rifle Division
				division_name = {
					is_name_ordered = yes
					name_order = 146
				}
				location = 10319
				division_template = "Strelkovaya Diviziya"
				start_experience_factor = 0.2
				start_equipment_factor = 0.9
			}
        #
        # Corps 49 #
        #
        # Corps 55 #
			division= { # Rifle Division
				division_name = {
					is_name_ordered = yes
					name_order = 130
				}
				location = 10319
				division_template = "Strelkovaya Diviziya"
				start_experience_factor = 0.2
				start_equipment_factor = 0.9
			}
			division= { # Rifle Division
				division_name = {
					is_name_ordered = yes
					name_order = 169
				}
				location = 10319
				division_template = "Strelkovaya Diviziya"
				start_experience_factor = 0.2
				start_equipment_factor = 0.9
			}
        #
        # Airborne Corps 1 #
        #
        # Mechanized Corps 9 #
			division= {# Light armour
				division_name = {
					is_name_ordered = yes
					name_order = 131
				}
				location = 10319
				division_template = "Mekhanizirovaniy Diviziya"
				start_experience_factor = 0.2
				start_equipment_factor = 0.9
			}
			division= {# Motorised Brigade
				division_name = {
					is_name_ordered = yes
					name_order = 32
				}
				location = 10319
				division_template = "Motostrelkovaya Brigada"
				start_experience_factor = 0.2
				start_equipment_factor = 0.9
			}
        #
        # Mechanized Corps 15 #
			division= {# Light armour
				division_name = {
					is_name_ordered = yes
					name_order = 212
				}
				location = 10319
				division_template = "Mekhanizirovaniy Diviziya"
				start_experience_factor = 0.2
				start_equipment_factor = 0.9
			}
			division= {# Motorised Brigade
				division_name = {
					is_name_ordered = yes
					name_order = 25
				}
				location = 10319
				division_template = "Motostrelkovaya Brigada"
				start_experience_factor = 0.2
				start_equipment_factor = 0.9
			}
        #
        # Mechanized Corps 19 #
			division= {# Light armour
				division_name = {
					is_name_ordered = yes
					name_order = 213
				}
				location = 10319
				division_template = "Motostrelkovaya Diviziya"
				start_experience_factor = 0.2
				start_equipment_factor = 0.9
			}
			division= {# Motorised Brigade
				division_name = {
					is_name_ordered = yes
					name_order = 21
				}
				location = 10319
				division_template = "Motostrelkovaya Brigada"
				start_experience_factor = 0.2
				start_equipment_factor = 0.9
			}
        #
        # Mechanized Corps 24 #
			division= {# Light armour
				division_name = {
					is_name_ordered = yes
					name_order = 216
				}
				location = 10319
				division_template = "Mekhanizirovaniy Diviziya"
				start_experience_factor = 0.2
				start_equipment_factor = 0.9
			}
			division= {# Motorised Brigade
				division_name = {
					is_name_ordered = yes
					name_order = 17
				}
				location = 10319
				division_template = "Motostrelkovaya Brigada"
				start_experience_factor = 0.2
				start_equipment_factor = 0.9
			}
        #
    #
    # Odessa Military District #
        # Army 9 #
            # Corps 14 #
				division= { # Rifle Division
					division_name = {
						is_name_ordered = yes
						name_order = 25
					}
					location = 438
					division_template = "Strelkovaya Diviziya"
					start_experience_factor = 0.2
					start_equipment_factor = 0.9
				}
				division= { # Rifle Division
					division_name = {
						is_name_ordered = yes
						name_order = 51
					}
					location = 5707
					division_template = "Strelkovaya Diviziya"
					start_experience_factor = 0.2
					start_equipment_factor = 0.9
				}
            #
            # Corps 35 #
				division= { # Rifle Division
					division_name = {
						is_name_ordered = yes
						name_order = 95
					}
					location = 3767
					division_template = "Strelkovaya Diviziya"
					start_experience_factor = 0.2
					start_equipment_factor = 0.9
				}
				division= { # Rifle Division
					division_name = {
						is_name_ordered = yes
						name_order = 176
					}
					location = 10126
					division_template = "Strelkovaya Diviziya"
					start_experience_factor = 0.2
					start_equipment_factor = 0.9
				}
            #
            # Corps 48 #
				division= {# Mountain Rifle Division
					division_name = {
						is_name_ordered = yes
						name_order = 30
					}
					location = 10128
					division_template = "Gornostrelkovaya Diviziya"
					start_experience_factor = 0.2
					start_equipment_factor = 0.9
				}
				division= { # Rifle Division
					division_name = {
						is_name_ordered = yes
						name_order = 74
					}
					location = 10149
					division_template = "Strelkovaya Diviziya"
					start_experience_factor = 0.2
					start_equipment_factor = 0.9
				}
            #
            # Cavalry Corps 2 #
				division= { # Cavalry Division
					division_name = {
						is_name_ordered = yes
						name_order = 5
					}
					location = 10151
					division_template = "Kavaleriyskaya Diviziya"
					start_experience_factor = 0.2
					start_equipment_factor = 0.8
				}
				division= { # Cavalry Division
					division_name = {
						is_name_ordered = yes
						name_order = 9
					}
					location = 3240
					division_template = "Kavaleriyskaya Diviziya"
					start_experience_factor = 0.2
					start_equipment_factor = 0.8
				}
            #
            # Mechanized Corps 2 #
				division= {# Light armour
					division_name = {
						is_name_ordered = yes
						name_order = 15
					}
					location = 10169
					division_template = "Mekhanizirovaniy Diviziya"
					start_experience_factor = 0.2
					start_equipment_factor = 0.9
				}
				division= {# Motorised Brigade
					division_name = {
						is_name_ordered = yes
						name_order = 6
					}
					location = 10171
					division_template = "Motostrelkovaya Brigada"
					start_experience_factor = 0.2
					start_equipment_factor = 0.9
				}
            #
            # Mechanized Corps 18 #
				division= {# Light armour
					division_name = {
						is_name_ordered = yes
						name_order = 218
					}
					location = 1900
					division_template = "Mekhanizirovaniy Diviziya"
					start_experience_factor = 0.2
					start_equipment_factor = 0.9
				}
				division= {# Motorised Brigade
					division_name = {
						is_name_ordered = yes
						name_order = 26
					}
					location = 11203
					division_template = "Motostrelkovaya Brigada"
					start_experience_factor = 0.2
					start_equipment_factor = 0.9
				}
            #
			division= { # Rifle Division
				division_name = {
					is_name_ordered = yes
					name_order = 150
				}
				location = 1679
				division_template = "Strelkovaya Diviziya"
				start_experience_factor = 0.2
				start_equipment_factor = 0.9
			}
        #
        # Corps 7 #
			division= { # Rifle Division
				division_name = {
					is_name_ordered = yes
					name_order = 116
				}
				location = 9534
				division_template = "Strelkovaya Diviziya"
				start_experience_factor = 0.2
				start_equipment_factor = 0.9
			}
        #
        # Corps 9 #
			division= { # Rifle Division
				division_name = {
					is_name_ordered = yes
					name_order = 116
				}
				location = 9531
				division_template = "Strelkovaya Diviziya"
				start_experience_factor = 0.2
				start_equipment_factor = 0.9
			}
			division= { # Cavalry Division
				division_name = {
					is_name_ordered = yes
					name_order = 32
				}
				location = 10088
				division_template = "Kavaleriyskaya Diviziya"
				start_experience_factor = 0.2
				start_equipment_factor = 0.8
			}
        #
        # Airborne Corps 3 #
        #
		division= { # Rifle Division
			division_name = {
				is_name_ordered = yes
				name_order = 47
			}
			location = 10088
			division_template = "Strelkovaya Diviziya"
			start_experience_factor = 0.2
			start_equipment_factor = 0.9
		}
    #
    # Transcaucasus Military District #
        # Corps 3 #
			division= { # Rifle Division
				division_name = {
					is_name_ordered = yes
					name_order = 4
				}
				location = 10061
				division_template = "Strelkovaya Diviziya"
				start_experience_factor = 0.2
				start_equipment_factor = 0.9
			}
			division= {# Mountain Rifle Division
				division_name = {
					is_name_ordered = yes
					name_order = 20
				}
				location = 10061
				division_template = "Gornostrelkovaya Diviziya"
				start_experience_factor = 0.2
				start_equipment_factor = 0.9
			}
			division= {# Mountain Rifle Division
				division_name = {
					is_name_ordered = yes
					name_order = 47
				}
				location = 10061
				division_template = "Gornostrelkovaya Diviziya"
				start_experience_factor = 0.2
				start_equipment_factor = 0.9
			}
        #
        # Corps 23 #
			division= { # Rifle Division
				division_name = {
					is_name_ordered = yes
					name_order = 136
				}
				location = 10061
				division_template = "Strelkovaya Diviziya"
				start_experience_factor = 0.2
				start_equipment_factor = 0.9
			}
        #
        # Corps 40 #
			division= {# Mountain Rifle Division
				division_name = {
					is_name_ordered = yes
					name_order = 9
				}
				location = 10061
				division_template = "Gornostrelkovaya Diviziya"
				start_experience_factor = 0.2
				start_equipment_factor = 0.9
			}
			division= { # Rifle Division
				division_name = {
					is_name_ordered = yes
					name_order = 31
				}
				location = 10061
				division_template = "Strelkovaya Diviziya"
				start_experience_factor = 0.2
				start_equipment_factor = 0.9
			}
        #
        # Mechanized Corps 28 #
			division= {# Light armour
				division_name = {
					is_name_ordered = yes
					name_order = 236
				}
				location = 10061
				division_template = "Mekhanizirovaniy Diviziya"
				start_experience_factor = 0.2
				start_equipment_factor = 0.9
			}
			division= {# Motorised Brigade
				division_name = {
					is_name_ordered = yes
					name_order = 13
				}
				location = 10061
				division_template = "Motostrelkovaya Brigada"
				start_experience_factor = 0.2
				start_equipment_factor = 0.9
			}
        #
		division= {# Mountain Rifle Division
			division_name = {
				is_name_ordered = yes
				name_order = 63
			}
			location = 10061
			division_template = "Gornostrelkovaya Diviziya"
			start_experience_factor = 0.2
			start_equipment_factor = 0.9
		}
		division= {# Mountain Rifle Division
			division_name = {
				is_name_ordered = yes
				name_order = 76
			}
			location = 10061
			division_template = "Gornostrelkovaya Diviziya"
			start_experience_factor = 0.2
			start_equipment_factor = 0.9
		}
		division= {# Mountain Rifle Division
			division_name = {
				is_name_ordered = yes
				name_order = 77
			}
			location = 10061
			division_template = "Gornostrelkovaya Diviziya"
			start_experience_factor = 0.2
			start_equipment_factor = 0.9
		}
		division= { # Cavalry Division
			division_name = {
				is_name_ordered = yes
				name_order = 17
			}
			location = 10061
			division_template = "Kavaleriyskaya Diviziya"
			start_experience_factor = 0.2
			start_equipment_factor = 0.8
		}
		division= { # Cavalry Division
			division_name = {
				is_name_ordered = yes
				name_order = 24
			}
			location = 10061
			division_template = "Kavaleriyskaya Diviziya"
			start_experience_factor = 0.2
			start_equipment_factor = 0.8
		}
    #
    # Arkhangelsk Military District #
		division= { # Rifle Division
			division_name = {
				is_name_ordered = yes
				name_order = 88
			}
			location = 11149
			division_template = "Strelkovaya Diviziya"
			start_experience_factor = 0.2
			start_equipment_factor = 0.9
		}
    #
    # Kharkov Military District #
        # Airborne Corps 2 #
        #
    #
    # Moscow Military District #
        # Corps 41 #
        #
    #
    # North Caucasus Military District #
        # Corps 64 #
        #
        # Mechanized Corps 26 #
			division= {# Light armour
				division_name = {
					is_name_ordered = yes
					name_order = 203
				}
				location = 10249
				division_template = "Mekhanizirovaniy Diviziya"
				start_experience_factor = 0.2
				start_equipment_factor = 0.9
			}
			division= {# Motorised Brigade
				division_name = {
					is_name_ordered = yes
					name_order = 26
				}
				location = 10249
				division_template = "Motostrelkovaya Brigada"
				start_experience_factor = 0.2
				start_equipment_factor = 0.9
			}
        #
		division= {# Mountain Rifle Division
			division_name = {
				is_name_ordered = yes
				name_order = 28
			}
			location = 10249
			division_template = "Gornostrelkovaya Diviziya"
			start_experience_factor = 0.2
			start_equipment_factor = 0.9
		}
		division= { # Rifle Division
			division_name = {
				is_name_ordered = yes
				name_order = 157
			}
			location = 10249
			division_template = "Strelkovaya Diviziya"
			start_experience_factor = 0.2
			start_equipment_factor = 0.9
		}
    #
    # Orel Military District #
        # Corps 30 #
			division= { # Rifle Division
				division_name = {
					is_name_ordered = yes
					name_order = 19
				}
				location = 10593
				division_template = "Strelkovaya Diviziya"
				start_experience_factor = 0.2
				start_equipment_factor = 0.9
			}
			division= { # Rifle Division
				division_name = {
					is_name_ordered = yes
					name_order = 149
				}
				location = 10593
				division_template = "Strelkovaya Diviziya"
				start_experience_factor = 0.2
				start_equipment_factor = 0.9
			}
        #
        # Corps 33 #
			division= { # Rifle Division
				division_name = {
					is_name_ordered = yes
					name_order = 89
				}
				location = 10593
				division_template = "Strelkovaya Diviziya"
				start_experience_factor = 0.2
				start_equipment_factor = 0.9
			}
			division= { # Rifle Division
				division_name = {
					is_name_ordered = yes
					name_order = 120
				}
				location = 10593
				division_template = "Strelkovaya Diviziya"
				start_experience_factor = 0.2
				start_equipment_factor = 0.9
			}
			division= { # Rifle Division
				division_name = {
					is_name_ordered = yes
					name_order = 145
				}
				location = 10593
				division_template = "Strelkovaya Diviziya"
				start_experience_factor = 0.2
				start_equipment_factor = 0.9
			}
        #
        # Mechanized Corps 23 #
			division= {# Light armour
				division_name = {
					is_name_ordered = yes
					name_order = 220
				}
				location = 10593
				division_template = "Mekhanizirovaniy Diviziya"
				start_experience_factor = 0.2
				start_equipment_factor = 0.9
			}
			division= {# Motorised Brigade
				division_name = {
					is_name_ordered = yes
					name_order = 27
				}
				location = 10593
				division_template = "Motostrelkovaya Brigada"
				start_experience_factor = 0.2
				start_equipment_factor = 0.9
			}
        #
    #
    # Central Asia Military District #
        # Corps 58 #
			division= {# Mountain Rifle Division
				division_name = {
					is_name_ordered = yes
					name_order = 68
				}
				location = 146
				division_template = "Gornostrelkovaya Diviziya"
				start_experience_factor = 0.2
				start_equipment_factor = 0.9
			}
			division= {# Mountain Rifle Division
				division_name = {
					is_name_ordered = yes
					name_order = 83
				}
				location = 146
				division_template = "Gornostrelkovaya Diviziya"
				start_experience_factor = 0.2
				start_equipment_factor = 0.9
			}
			division= {# Mountain Rifle Division
				division_name = {
					is_name_ordered = yes
					name_order = 194
				}
				location = 146
				division_template = "Gornostrelkovaya Diviziya"
				start_experience_factor = 0.2
				start_equipment_factor = 0.9
			}
        #
        # Cavalry Corps 4 #
			division= { # Cavalry Division
				division_name = {
					is_name_ordered = yes
					name_order = 18
				}
				location = 146
				division_template = "Kavaleriyskaya Diviziya"
				start_experience_factor = 0.2
				start_equipment_factor = 0.8
			}
			division= { # Cavalry Division
				division_name = {
					is_name_ordered = yes
					name_order = 20
				}
				location = 146
				division_template = "Kavaleriyskaya Diviziya"
				start_experience_factor = 0.2
				start_equipment_factor = 0.8
			}
			division= { # Cavalry Division
				division_name = {
					is_name_ordered = yes
					name_order = 21
				}
				location = 146
				division_template = "Kavaleriyskaya Diviziya"
				start_experience_factor = 0.2
				start_equipment_factor = 0.8
			}
        #
        # Mechanized Corps 27 #
			division= {# Light armour
				division_name = {
					is_name_ordered = yes
					name_order = 221
				}
				location = 146
				division_template = "Mekhanizirovaniy Diviziya"
				start_experience_factor = 0.2
				start_equipment_factor = 0.9
			}
			division= {# Motorised Brigade
				division_name = {
					is_name_ordered = yes
					name_order = 31
				}
				location = 146
				division_template = "Motostrelkovaya Brigada"
				start_experience_factor = 0.2
				start_equipment_factor = 0.9
			}
        #
    #
    # Stavka Strategic Reserves #
        # Army 16 #
            # Corps 32 #
				division= { # Rifle Division
					division_name = {
						is_name_ordered = yes
						name_order = 46
					}
					location = 5220
					division_template = "Strelkovaya Diviziya"
					start_experience_factor = 0.2
					start_equipment_factor = 0.9
				}
				division= { # Rifle Division
					division_name = {
						is_name_ordered = yes
						name_order = 152
					}
					location = 5220
					division_template = "Strelkovaya Diviziya"
					start_experience_factor = 0.2
					start_equipment_factor = 0.9
				}
            #
            # Mechanized Corps 5 #
				division= {# Light armour
					division_name = {
						is_name_ordered = yes
						name_order = 109
					}
					location = 5220
					division_template = "Mekhanizirovaniy Diviziya"
					start_experience_factor = 0.2
					start_equipment_factor = 0.9
				}
				division= {# Motorised Brigade
					division_name = {
						is_name_ordered = yes
						name_order = 8
					}
					location = 5220
					division_template = "Motostrelkovaya Brigada"
					start_experience_factor = 0.2
					start_equipment_factor = 0.9
				}
            #
        #
        # Army 19 #
            # Corps 25 #
				division= { # Rifle Division
					division_name = {
						is_name_ordered = yes
						name_order = 134
					}
					location = 10259
					division_template = "Strelkovaya Diviziya"
					start_experience_factor = 0.2
					start_equipment_factor = 0.9
				}
				division= { # Rifle Division
					division_name = {
						is_name_ordered = yes
						name_order = 162
					}
					location = 10259
					division_template = "Strelkovaya Diviziya"
					start_experience_factor = 0.2
					start_equipment_factor = 0.9
				}
            #
            # Corps 34 #
				division= { # Rifle Division
					division_name = {
						is_name_ordered = yes
						name_order = 158
					}
					location = 10259
					division_template = "Strelkovaya Diviziya"
					start_experience_factor = 0.2
					start_equipment_factor = 0.9
				}
				division= { # Rifle Division
					division_name = {
						is_name_ordered = yes
						name_order = 171
					}
					location = 10259
					division_template = "Strelkovaya Diviziya"
					start_experience_factor = 0.2
					start_equipment_factor = 0.9
				}
            #
			division= { # Rifle Division
				division_name = {
					is_name_ordered = yes
					name_order = 38
				}
				location = 10259
				division_template = "Strelkovaya Diviziya"
				start_experience_factor = 0.2
				start_equipment_factor = 0.9
			}
        #
        # Army 20 #
            # Corps 61 #
				division= { # Rifle Division
					division_name = {
						is_name_ordered = yes
						name_order = 110
					}
					location = 10680
					division_template = "Strelkovaya Diviziya"
					start_experience_factor = 0.2
					start_equipment_factor = 0.9
				}
				division= { # Rifle Division
					division_name = {
						is_name_ordered = yes
						name_order = 114
					}
					location = 10680
					division_template = "Strelkovaya Diviziya"
					start_experience_factor = 0.2
					start_equipment_factor = 0.9
				}
				division= { # Rifle Division
					division_name = {
						is_name_ordered = yes
						name_order = 172
					}
					location = 10680
					division_template = "Strelkovaya Diviziya"
					start_experience_factor = 0.2
					start_equipment_factor = 0.9
				}
            #
            # Corps 69 #
				division= { # Rifle Division
					division_name = {
						is_name_ordered = yes
						name_order = 73
					}
					location = 10680
					division_template = "Strelkovaya Diviziya"
					start_experience_factor = 0.2
					start_equipment_factor = 0.9
				}
            #
            # Mechanized Corps 7 #
				division= {# Light armour
					division_name = {
						is_name_ordered = yes
						name_order = 1
					}
					location = 10680
					division_template = "Motostrelkovaya Diviziya"
					start_experience_factor = 0.2
					start_equipment_factor = 0.9
				}
				division= {# Motorised Brigade
					division_name = {
						is_name_ordered = yes
						name_order = 9
					}
					location = 10680
					division_template = "Motostrelkovaya Brigada"
					start_experience_factor = 0.2
					start_equipment_factor = 0.9
				}
            #
			division= { # Rifle Division
				division_name = {
					is_name_ordered = yes
					name_order = 18
				}
				location = 10680
				division_template = "Strelkovaya Diviziya"
				start_experience_factor = 0.2
				start_equipment_factor = 0.9
			}
        #
        # Army 21 #
            # Corps 63 #
				division= { # Rifle Division
					division_name = {
						is_name_ordered = yes
						name_order = 53
					}
					location = 10471
					division_template = "Strelkovaya Diviziya"
					start_experience_factor = 0.2
					start_equipment_factor = 0.9
				}
				division= { # Rifle Division
					division_name = {
						is_name_ordered = yes
						name_order = 148
					}
					location = 10471
					division_template = "Strelkovaya Diviziya"
					start_experience_factor = 0.2
					start_equipment_factor = 0.9
				}
            #
            # Corps 66 #
				division= { # Rifle Division
					division_name = {
						is_name_ordered = yes
						name_order = 61
					}
					location = 10471
					division_template = "Strelkovaya Diviziya"
					start_experience_factor = 0.2
					start_equipment_factor = 0.9
				}
				division= { # Rifle Division
					division_name = {
						is_name_ordered = yes
						name_order = 117
					}
					location = 10471
					division_template = "Strelkovaya Diviziya"
					start_experience_factor = 0.2
					start_equipment_factor = 0.9
				}
            #
            # Mechanized Corps 25 #
				division= {# Light armour
					division_name = {
						is_name_ordered = yes
						name_order = 219
					}
					location = 10471
					division_template = "Mekhanizirovaniy Diviziya"
					start_experience_factor = 0.2
					start_equipment_factor = 0.9
				}
				division= {# Motorised Brigade
					division_name = {
						is_name_ordered = yes
						name_order = 12
					}
					location = 10471
					division_template = "Motostrelkovaya Brigada"
					start_experience_factor = 0.2
					start_equipment_factor = 0.9
				}
            #
        #
        # Army 22 #
            # Corps 51 #
				division= { # Rifle Division
					division_name = {
						is_name_ordered = yes
						name_order = 98
					}
					location = 10802
					division_template = "Strelkovaya Diviziya"
					start_experience_factor = 0.2
					start_equipment_factor = 0.9
				}
				division= { # Rifle Division
					division_name = {
						is_name_ordered = yes
						name_order = 112
					}
					location = 10802
					division_template = "Strelkovaya Diviziya"
					start_experience_factor = 0.2
					start_equipment_factor = 0.9
				}
            #
            # Corps 62 #
				division= { # Rifle Division
					division_name = {
						is_name_ordered = yes
						name_order = 170
					}
					location = 10802
					division_template = "Strelkovaya Diviziya"
					start_experience_factor = 0.2
					start_equipment_factor = 0.9
				}
				division= { # Rifle Division
					division_name = {
						is_name_ordered = yes
						name_order = 186
					}
					location = 10802
					division_template = "Strelkovaya Diviziya"
					start_experience_factor = 0.2
					start_equipment_factor = 0.9
				}
            #
        #
        # Army 24 (Siberia) #
            # # Corps 52 #
			# 	division= { # Rifle Division
			# 		division_name = {
			# 			is_name_ordered = yes
			# 			name_order = 91
			# 		}
			# 		location = 1651
			# 		division_template = "Strelkovaya Diviziya"
			# 		start_experience_factor = 0.2
			# 		start_equipment_factor = 0.9
			# 	}
			# 	division= { # Rifle Division
			# 		division_name = {
			# 			is_name_ordered = yes
			# 			name_order = 119
			# 		}
			# 		location = 1651
			# 		division_template = "Strelkovaya Diviziya"
			# 		start_experience_factor = 0.2
			# 		start_equipment_factor = 0.9
			# 	}
			# 	division= { # Rifle Division
			# 		division_name = {
			# 			is_name_ordered = yes
			# 			name_order = 166
			# 		}
			# 		location = 1651
			# 		division_template = "Strelkovaya Diviziya"
			# 		start_experience_factor = 0.2
			# 		start_equipment_factor = 0.9
			# 	}
            # #
            # # Corps 53 #
			# 	division= { # Rifle Division
			# 		division_name = {
			# 			is_name_ordered = yes
			# 			name_order = 107
			# 		}
			# 		location = 1651
			# 		division_template = "Strelkovaya Diviziya"
			# 		start_experience_factor = 0.2
			# 		start_equipment_factor = 0.9
			# 	}
			# 	division= { # Rifle Division
			# 		division_name = {
			# 			is_name_ordered = yes
			# 			name_order = 133
			# 		}
			# 		location = 1651
			# 		division_template = "Strelkovaya Diviziya"
			# 		start_experience_factor = 0.2
			# 		start_equipment_factor = 0.9
			# 	}
			# 	division= { # Rifle Division
			# 		division_name = {
			# 			is_name_ordered = yes
			# 			name_order = 178
			# 		}
			# 		location = 1651
			# 		division_template = "Strelkovaya Diviziya"
			# 		start_experience_factor = 0.2
			# 		start_equipment_factor = 0.9
			# 	}
            # #
        #
        # Corps 20 #
			division= { # Rifle Division
				division_name = {
					is_name_ordered = yes
					name_order = 137
				}
				location = 10809
				division_template = "Strelkovaya Diviziya"
				start_experience_factor = 0.2
				start_equipment_factor = 0.9
			}
        #
        # Corps 45 #
			division= { # Rifle Division
				division_name = {
					is_name_ordered = yes
					name_order = 187
				}
				location = 10809
				division_template = "Strelkovaya Diviziya"
				start_experience_factor = 0.2
				start_equipment_factor = 0.9
			}
        #
        # Corps 67 #
			division= { # Rifle Division
				division_name = {
					is_name_ordered = yes
					name_order = 102
				}
				location = 10809
				division_template = "Strelkovaya Diviziya"
				start_experience_factor = 0.2
				start_equipment_factor = 0.9
			}
			division= { # Rifle Division
				division_name = {
					is_name_ordered = yes
					name_order = 132
				}
				location = 10809
				division_template = "Strelkovaya Diviziya"
				start_experience_factor = 0.2
				start_equipment_factor = 0.9
			}
			division= { # Rifle Division
				division_name = {
					is_name_ordered = yes
					name_order = 151
				}
				location = 10809
				division_template = "Strelkovaya Diviziya"
				start_experience_factor = 0.2
				start_equipment_factor = 0.9
			}
        #
        # Mechanized Corps 21 #
			division= {# Light armour
				division_name = {
					is_name_ordered = yes
					name_order = 185
				}
				location = 10809
				division_template = "Mekhanizirovaniy Diviziya"
				start_experience_factor = 0.2
				start_equipment_factor = 0.9
			}
			division= {# Motorised Brigade
				division_name = {
					is_name_ordered = yes
					name_order = 11
				}
				location = 10809
				division_template = "Motostrelkovaya Brigada"
				start_experience_factor = 0.2
				start_equipment_factor = 0.9
			}
        #
    #
}

### Air Wings
air_wings = {
	156 = {																# Leningrad
		### LVO Aviatsya Komandovaniya ###
		fighter_equipment_1 = { owner = "SOV" amount = 225 }				# 14ya Istrebitel'nye Avia. Polk -- I-16
						# 54ya Istrebitel'nye Avia. Polk -- I-16
						# 59ya Istrebitel'nye Avia. Polk -- I-16
						# 15ya Smeshannye Avia. Polk -- I-16 Type 10 (REVISIT -- VARIANT)
		tac_bomber_equipment_1 =  { owner = "SOV" amount = 216 }			# 29ya Bombardirovochnye Avia. Polk -- DB-3B (REVISIT -- VARIANT)
					# 55ya Bombardirovochnye Avia. Polk -- DB-3A
					# 68ya Bombardirovochnye Avia. Polk -- DB-3A
					# 71ya Bombardirovochnye Avia. Polk -- DB-3A
		### VVS - KBF Aviatsya Komandovaniya ###
		nav_bomber_equipment_1 = { owner = "SOV" amount = 96 }			# 8ya VMF Aviabrigada -- MBR-2
					# 10ya VMF Aviabrigada -- MBR-2														# Moscow
		### MVO Aviatsya Komandovaniya ###
		fighter_equipment_0 = { owner = "SOV" amount = 90 }				# 2ya Istrebitel'nye Avia. Polk -- I-15
						# 54ya Istrebitel'nye Avia. Polk -- I-15
		transport_plane_equipment_1 = { owner = "SOV" amount = 60 }		# 46ya Transporta Avia. Tupolev ANT-9
		### 1ya Vozdushnaya Armiya ###
		strat_bomber_equipment_1 =  { owner = "SOV" amount = 60 }		# 13ya Dal'nyaya Bombardirovochnye Avia. Polk -- TB-3-4M
				# 27ya Dal'nyaya Bombardirovochnye Avia. Polk -- TB-3-4M													# Minsk
		### BOVO Aviatsya Komandovaniya ###
		fighter_equipment_1 = { owner = "SOV" amount = 90 }				# 56ya Istrebitel'nye Avia. Polk -- I-16
						# 58ya Istrebitel'nye Avia. Polk -- I-16
		fighter_equipment_0 = { owner = "SOV" amount = 60 }				# 66ya Istrebitel'nye Avia. Polk -- I-153 (REVISIT -- VARIANT)
		CAS_equipment_1 =  { owner = "SOV" amount = 60 }				# 8ya Shturmovye Avia. Polk -- SB-2M-103 (REVISIT -- VARIANT)
		tac_bomber_equipment_1 =  { owner = "SOV" amount = 216 }			# 16ya Bombardirovochnye Avia. Polk -- DB-3B (REVISIT -- VARIANT)
					# 18ya Bombardirovochnye Avia. Polk -- DB-3B (REVISIT -- VARIANT)
					# 65ya Bombardirovochnye Avia. Polk -- DB-3A
					# 70ya Bombardirovochnye Avia. Polk -- DB-3A														# Smolensk
		### KalVO Aviatsya Komandovaniya ###
		fighter_equipment_1 = { owner = "SOV" amount = 60 }				# 17ya Smeshannye Avia. Polk -- I-16 Type 10 (REVISIT -- VARIANT)							# Kiev
		### KOVO Aviatsya Komandovaniya ###
		fighter_equipment_0 = { owner = "SOV" amount = 60 }				# 22ya Istrebitel'nye Avia. Polk -- I-153 (REVISIT -- VARIANT)
		fighter_equipment_1 = { owner = "SOV" amount = 90 }				# 51ya Smeshannye Avia. Polk -- I-16 Type 10 (REVISIT -- VARIANT)
						# 69ya Smeshannye Avia. Polk -- I-16 Type 10 (REVISIT -- VARIANT)
		tac_bomber_equipment_1 =  { owner = "SOV" amount = 144 }			# 1ya Bombardirovochnye Avia. Polk -- DB-3B (REVISIT -- VARIANT)
					# 10ya Bombardirovochnye Avia. Polk -- DB-3B (REVISIT -- VARIANT)
					# 62ya Bombardirovochnye Avia. Polk -- DB-3B (REVISIT -- VARIANT)
		### KhVO Aviatsya Komandovaniya ###
		tac_bomber_equipment_1 =  { owner = "SOV" amount = 60 }			# 19ya Bombardirovochnye Avia. Polk -- DB-3A						# Sevastopol
		### VVS - BSF Aviatsya Komandovaniya ###
		nav_bomber_equipment_1 = { owner = "SOV" amount = 96 }			# 4ya VMF Aviabrigada -- MBR-2
					# 7ya VMF Aviabrigada -- MBR-2					# Tblisi
		### ZakVO Aviatsya Komandovaniya ###
		fighter_equipment_0 = { owner = "SOV" amount = 60 }				# 60ya Istrebitel'nye Avia. Polk -- I-153 (REVISIT -- VARIANT)			# Rostov na don
		### 3ya Vozdushnaya Armiya ###
		strat_bomber_equipment_1 =  { owner = "SOV" amount = 60 }		# 3ya Dal'nyaya Bombardirovochnye Avia. Polk -- TB-3-4M
				# 7ya Dal'nyaya Bombardirovochnye Avia. Polk -- TB-3-4M			# Vladivostock
		### Dal'nevostochnyi Aviatsya Komandovaniya ###
		fighter_equipment_0 = { owner = "SOV" amount = 165 }				# 31ya Istrebitel'nye Avia. Polk -- I-15
						# 53ya Istrebitel'nye Avia. Polk -- I-153 (REVISIT -- VARIANT)
						# 61ya Istrebitel'nye Avia. Polk -- I-153 (REVISIT -- VARIANT)
		fighter_equipment_1 = { owner = "SOV" amount = 135 }				# 20ya Smeshannye Avia. Polk -- I-16 Type 10 (REVISIT -- VARIANT)
						# 26ya Smeshannye Avia. Polk -- I-16 Type 10 (REVISIT -- VARIANT)
						# 28ya Smeshannye Avia. Polk -- I-16 Type 10 (REVISIT -- VARIANT)
		CAS_equipment_1 =  { owner = "SOV" amount = 45 }				# 72ya Shturmovye Avia. Polk -- SB-2M-100
		tac_bomber_equipment_1 =  { owner = "SOV" amount = 72 }			# 12ya Bombardirovochnye Avia. Polk -- DB-3B (REVISIT -- VARIANT)
					# 25ya Bombardirovochnye Avia. Polk -- DB-3B (REVISIT -- VARIANT)
		strat_bomber_equipment_1 =  { owner = "SOV" amount = 100 }		# 5ya Dal'nyaya Bombardirovochnye Avia. Polk -- TB-3-4M
		### 2ya Vozdushnaya Armiya ###
				# 30ya Dal'nyaya Bombardirovochnye Avia. Polk -- TB-3-4M
				# 64ya Dal'nyaya Bombardirovochnye Avia. Polk -- TB-3-4M# Chita
		### ZbkVO Aviatsya Komandovaniya ###
		fighter_equipment_0 = { owner = "SOV" amount = 60 }				# 100ya Istrebitel'nye Avia. Polk -- I-15
		fighter_equipment_1 = { owner = "SOV" amount = 45 }				# 67ya Smeshannye Avia. Polk -- I-16 Type 10 (REVISIT -- VARIANT)
		CAS_equipment_1 =  { owner = "SOV" amount = 60 }				# 23ya Shturmovye Avia. Polk -- SB-2M-100
		tac_bomber_equipment_1 =  { owner = "SOV" amount = 60 }			# 63ya Bombardirovochnye Avia. Polk -- DB-3A										# Khabarovsk
		### SibVO Aviatsya Komandovaniya ###
		CAS_equipment_1 =  { owner = "SOV" amount = 60 }				# 52ya Shturmovye Avia. Polk -- SB-2M-103 (REVISIT -- VARIANT)
	}

}


	#########################
	## STARTING PRODUCTION ##
	#########################
instant_effect = {


	add_equipment_production = {
		equipment = {
			type = infantry_equipment_1
			creator = "SOV"
		}
		requested_factories = 15
		progress = 0.1
		efficiency = 100
	}

	add_equipment_production = {
		equipment = {
			type = support_equipment_1
			creator = "SOV"
		}
		requested_factories = 3
		progress = 0.3
		efficiency = 100
	}

	add_equipment_production = {
		equipment = {
			type = artillery_equipment_1
			creator = "SOV"
		}
		requested_factories = 2
		progress = 0.3
		efficiency = 100
	}

	add_equipment_production = {
		equipment = {
			type = light_tank_equipment_2
			creator = "SOV"
		}
		requested_factories = 5
		progress = 0.4
		efficiency = 100
	}

	add_equipment_production = {
		equipment = {
			type = motorized_equipment_1
			creator = "SOV"
		}
		requested_factories = 5
		progress = 0.4
		efficiency = 100
	}

	add_equipment_production = {
		equipment = {
			type = fighter_equipment_1
			creator = "SOV"
		}
		requested_factories = 4
		progress = 0.15
		efficiency = 100
	}

	add_equipment_production = {
		equipment = {
			type = strat_bomber_equipment_1
			creator = "SOV"
		}
		requested_factories = 2
		progress = 0.2
		efficiency = 100
	}
}
	#####################
