division_template = {
	name = "Schwere Panzer-Abteilung"
	priority = 2

	regiments = {
		mechanized = { x = 0 y = 0 }
		mechanized = { x = 0 y = 1 }
		mechanized = { x = 1 y = 0 }
		mechanized = { x = 1 y = 1 }
		heavy_armor = { x = 2 y = 0 }
		heavy_armor = { x = 2 y = 1 }
		heavy_armor = { x = 2 y = 2 }
		heavy_armor = { x = 3 y = 0 }
		heavy_armor = { x = 3 y = 1 }
		heavy_armor = { x = 3 y = 2 }
	}

	support = {
		engineer = { x = 0 y = 0 }
		mot_recon = { x = 0 y = 1 }
		signal_company = { x = 0 y = 2 }
	}
}

units = {
	##### PFU 502nd #####
	division= {
		name = "502. Schwere Panzer-Abteilung"
		location = 8469
		division_template = "Schwere Panzer-Abteilung"
		start_experience_factor = 0.4
		start_equipment_factor = 0.1
	}
}
